﻿[
  {
    "ConfigurationType": "static_emails",
    "Value": "[{\"account_management\": \"support@artinove.fr\" }, {\"default\": \"support@artinove.fr\"}]"
  },
  {
    "ConfigurationType": "messaging",
    "Value": "{\"userName\": \"\", \"server\": \"\", \"password\": \"\", \"port\": \"\", \"ssl\": false}"
  },
  {
    "ConfigurationType": "counter",
    "Value": "[{\"documentType\":1,\"prefix\":\"CLT-\",\"counterLength\":5,\"dateFormat\":0,\"counter\":1},{\"documentType\":2,\"prefix\":\"SUP-\",\"counterLength\":5,\"dateFormat\":0,\"counter\":1},{\"documentType\":3,\"prefix\":\"AGT-\",\"counterLength\":5,\"dateFormat\":0,\"counter\":1},{\"documentType\":4,\"prefix\":\"QOT-\",\"counterLength\":5,\"dateFormat\":0,\"counter\":1},{\"documentType\":5,\"prefix\":\"OPS-\",\"counterLength\":5,\"dateFormat\":0,\"counter\":1},{\"documentType\":6,\"prefix\":\"INVC-\",\"counterLength\":5,\"dateFormat\":0,\"counter\":1},{\"documentType\":7,\"prefix\":\"DWNPY-\",\"counterLength\":5,\"dateFormat\":0,\"counter\":1},{\"documentType\":8,\"prefix\":\"SUPORD-\",\"counterLength\":5,\"dateFormat\":0,\"counter\":1},{\"documentType\":9,\"prefix\":\"OPSM-\",\"counterLength\":5,\"dateFormat\":0,\"counter\":1},{\"documentType\":17,\"prefix\":\"CONTRAT-\",\"counterLength\":5,\"dateFormat\":0,\"counter\":1}]"
  },
  {
    "ConfigurationType": "default_values",
    "Value": "{\"salesPrice\":69,\"buyingPrice\":32,\"cartCost\":18,\"displacementCost\":36,\"startingHour\":\"08:00\",\"endingHour\":\"08:00\",\"defaultVAT\":20}"
  },
  {
    "ConfigurationType": "documents_configuration",
    "Value": "[{\"documentType\":4,\"LotDetails\": false,\"validity\":30,\"Holdback\":30,\"object\":\"\",\"note\":\"\",\"paymentTerms\":\"\",\"header\":\"\",\"Email\":{\"subject\":\"\",\"content\":\"\"},\"reflationEmail\":{\"subject\":\"\",\"content\":\"\"}},{\"documentType\":5,\"object\":\"\",\"header\":\"\",\"Email\":{\"subject\":\"\",\"content\":\"\"}},{\"documentType\":6,\"LotDetails\": false,\"validity\":30,\"Holdback\":0,\"object\":\"\",\"note\":\"\",\"paymentTerms\":\"\",\"header\":\"\",\"Email\":{\"subject\":\"\",\"content\":\"the content\"},\"reflationEmail\":{\"subject\":\"\",\"content\":\"\"}},{\"documentType\":7,\"validity\":30,\"Holdback\":0,\"object\":\"\",\"note\":\"\",\"paymentTerms\":\"\",\"header\":\"\"},{\"documentType\":8,\"validity\":30,\"object\":\"\",\"note\":\"\",\"header\":\"\"},{\"documentType\":10,\"object\":\"\",\"note\":\"\",\"paymentTerms\":\"\"}]"
  },
  {
    "ConfigurationType": "google_configuration",
    "Value": "{ \"calendar_id\": \"\" }"
  },
  {
    "ConfigurationType": "pdf_options",
    "Value": "{\"header\": { \"companyName\": \"\", \"phoneNumber\": \"\", \"email\": \"\", \"address\": { \"Street\": \"\", \"City\": \"\", \"PostalCode\": \"\", \"CountryCode\": \"\" } }, \"footer\": { \"line_1\": \"\", \"line_2\": \"\", \"line_3\": \"\" }, \"images\": { \"logo\": \"\"}}"
  },
  {
    "ConfigurationType": "mission_technician_task_types",
    "Value": "[]"
  },
  {
    "ConfigurationType": "mission_call_types",
    "Value": "[]"
  },
  {
    "ConfigurationType": "mission_appointment_types",
    "Value": "[]"
  }
]