{
  "runtimeTarget": {
    "name": ".NETStandard,Version=v2.0/",
    "signature": ""
  },
  "compilationOptions": {},
  "targets": {
    ".NETStandard,Version=v2.0": {},
    ".NETStandard,Version=v2.0/": {
      "Axiobat.Infrastructure/1.0.0": {
        "dependencies": {
          "Axiobat.Application": "1.0.0",
          "Axiobat.Domain": "1.0.0",
          "DocumentFormat.OpenXml": "2.8.1",
          "EPPlus": "4.5.1",
          "Google.Apis.Calendar.v3": "1.44.0.1879",
          "Microsoft.Extensions.DependencyInjection.Abstractions": "2.1.1",
          "NETStandard.Library": "2.0.3",
          "Newtonsoft.Json": "12.0.3",
          "SharedServices.Core": "1.0.0.27",
          "SocketLabs.EmailDelivery": "1.0.0.4",
          "iTextSharp.LGPLv2.Core": "1.6.2"
        },
        "runtime": {
          "Axiobat.Infrastructure.dll": {}
        }
      },
      "Application.Common/1.0.0.29": {
        "dependencies": {
          "Newtonsoft.Json": "12.0.3"
        },
        "runtime": {
          "lib/netstandard2.0/Application.Common.dll": {
            "assemblyVersion": "1.0.0.0",
            "fileVersion": "1.0.0.0"
          }
        }
      },
      "AutoMapper/9.0.0": {
        "dependencies": {
          "Microsoft.CSharp": "4.7.0",
          "System.Reflection.Emit": "4.3.0"
        },
        "runtime": {
          "lib/netstandard2.0/AutoMapper.dll": {
            "assemblyVersion": "9.0.0.0",
            "fileVersion": "9.0.0.0"
          }
        }
      },
      "AutoMapper.Extensions.Microsoft.DependencyInjection/7.0.0": {
        "dependencies": {
          "AutoMapper": "9.0.0",
          "Microsoft.Extensions.DependencyInjection.Abstractions": "2.1.1"
        },
        "runtime": {
          "lib/netstandard2.0/AutoMapper.Extensions.Microsoft.DependencyInjection.dll": {
            "assemblyVersion": "0.0.0.0",
            "fileVersion": "7.0.0.0"
          }
        }
      },
      "DnsClient/1.2.0": {
        "dependencies": {
          "System.Buffers": "4.4.0"
        },
        "runtime": {
          "lib/netstandard2.0/DnsClient.dll": {
            "assemblyVersion": "1.2.0.0",
            "fileVersion": "1.2.0.0"
          }
        }
      },
      "DocumentFormat.OpenXml/2.8.1": {
        "dependencies": {
          "NETStandard.Library": "2.0.3",
          "System.IO.Packaging": "4.4.0",
          "System.Runtime.Serialization.Xml": "4.3.0"
        },
        "runtime": {
          "lib/netstandard1.3/DocumentFormat.OpenXml.dll": {
            "assemblyVersion": "2.8.1.0",
            "fileVersion": "2.8.1.15"
          }
        }
      },
      "EPPlus/4.5.1": {
        "dependencies": {
          "Microsoft.Extensions.Configuration.Json": "2.0.0",
          "System.ComponentModel.TypeConverter": "4.3.0",
          "System.Data.Common": "4.3.0",
          "System.Drawing.Common": "4.7.0",
          "System.Reflection": "4.3.0",
          "System.Security.Claims": "4.3.0",
          "System.Security.Cryptography.Pkcs": "4.4.0",
          "System.Security.Cryptography.X509Certificates": "4.3.0",
          "System.Text.Encoding.CodePages": "4.7.0",
          "System.Xml.XPath.XmlDocument": "4.3.0",
          "System.Xml.XmlDocument": "4.3.0"
        },
        "runtime": {
          "lib/netstandard2.0/EPPlus.dll": {
            "assemblyVersion": "4.5.1.0",
            "fileVersion": "4.5.1.0"
          }
        }
      },
      "FluentValidation/8.6.1": {
        "dependencies": {
          "System.ComponentModel.Annotations": "4.5.0"
        },
        "runtime": {
          "lib/netstandard2.0/FluentValidation.dll": {
            "assemblyVersion": "8.0.0.0",
            "fileVersion": "8.6.1.0"
          }
        }
      },
      "Google.Apis/1.44.0": {
        "dependencies": {
          "Google.Apis.Core": "1.44.0"
        },
        "runtime": {
          "lib/netstandard2.0/Google.Apis.dll": {
            "assemblyVersion": "1.44.0.0",
            "fileVersion": "1.44.0.0"
          }
        }
      },
      "Google.Apis.Auth/1.44.0": {
        "dependencies": {
          "Google.Apis": "1.44.0",
          "Google.Apis.Core": "1.44.0"
        },
        "runtime": {
          "lib/netstandard2.0/Google.Apis.Auth.PlatformServices.dll": {
            "assemblyVersion": "1.44.0.0",
            "fileVersion": "1.44.0.0"
          },
          "lib/netstandard2.0/Google.Apis.Auth.dll": {
            "assemblyVersion": "1.44.0.0",
            "fileVersion": "1.44.0.0"
          }
        }
      },
      "Google.Apis.Calendar.v3/1.44.0.1879": {
        "dependencies": {
          "Google.Apis": "1.44.0",
          "Google.Apis.Auth": "1.44.0"
        },
        "runtime": {
          "lib/netstandard2.0/Google.Apis.Calendar.v3.dll": {
            "assemblyVersion": "1.44.0.1879",
            "fileVersion": "1.44.0.1879"
          }
        }
      },
      "Google.Apis.Core/1.44.0": {
        "dependencies": {
          "Newtonsoft.Json": "12.0.3"
        },
        "runtime": {
          "lib/netstandard2.0/Google.Apis.Core.dll": {
            "assemblyVersion": "1.44.0.0",
            "fileVersion": "1.44.0.0"
          }
        }
      },
      "iTextSharp.LGPLv2.Core/1.6.2": {
        "dependencies": {
          "Portable.BouncyCastle": "1.8.5.2",
          "System.Collections.NonGeneric": "4.3.0",
          "System.Drawing.Common": "4.7.0",
          "System.Net.Requests": "4.3.0",
          "System.Reflection.TypeExtensions": "4.7.0",
          "System.Runtime.Loader": "4.3.0",
          "System.Security.Cryptography.Algorithms": "4.3.1",
          "System.Text.Encoding.CodePages": "4.7.0",
          "System.Xml.ReaderWriter": "4.3.1",
          "System.Xml.XmlDocument": "4.3.0"
        },
        "runtime": {
          "lib/netstandard2.0/iTextSharp.LGPLv2.Core.dll": {
            "assemblyVersion": "1.6.2.0",
            "fileVersion": "1.6.2.0"
          }
        }
      },
      "Microsoft.AspNetCore.Cryptography.Internal/2.1.0": {
        "runtime": {
          "lib/netstandard2.0/Microsoft.AspNetCore.Cryptography.Internal.dll": {
            "assemblyVersion": "2.1.0.0",
            "fileVersion": "2.1.0.18136"
          }
        }
      },
      "Microsoft.AspNetCore.Cryptography.KeyDerivation/2.1.0": {
        "dependencies": {
          "Microsoft.AspNetCore.Cryptography.Internal": "2.1.0"
        },
        "runtime": {
          "lib/netstandard2.0/Microsoft.AspNetCore.Cryptography.KeyDerivation.dll": {
            "assemblyVersion": "2.1.0.0",
            "fileVersion": "2.1.0.18136"
          }
        }
      },
      "Microsoft.CSharp/4.7.0": {
        "runtime": {
          "lib/netstandard2.0/Microsoft.CSharp.dll": {
            "assemblyVersion": "4.0.5.0",
            "fileVersion": "4.700.19.56404"
          }
        }
      },
      "Microsoft.Extensions.Configuration/2.1.0": {
        "dependencies": {
          "Microsoft.Extensions.Configuration.Abstractions": "2.1.0"
        },
        "runtime": {
          "lib/netstandard2.0/Microsoft.Extensions.Configuration.dll": {
            "assemblyVersion": "2.1.0.0",
            "fileVersion": "2.1.0.18136"
          }
        }
      },
      "Microsoft.Extensions.Configuration.Abstractions/2.1.0": {
        "dependencies": {
          "Microsoft.Extensions.Primitives": "2.1.0"
        },
        "runtime": {
          "lib/netstandard2.0/Microsoft.Extensions.Configuration.Abstractions.dll": {
            "assemblyVersion": "2.1.0.0",
            "fileVersion": "2.1.0.18136"
          }
        }
      },
      "Microsoft.Extensions.Configuration.Binder/2.1.0": {
        "dependencies": {
          "Microsoft.Extensions.Configuration": "2.1.0"
        },
        "runtime": {
          "lib/netstandard2.0/Microsoft.Extensions.Configuration.Binder.dll": {
            "assemblyVersion": "2.1.0.0",
            "fileVersion": "2.1.0.18136"
          }
        }
      },
      "Microsoft.Extensions.Configuration.FileExtensions/2.0.0": {
        "dependencies": {
          "Microsoft.Extensions.Configuration": "2.1.0",
          "Microsoft.Extensions.FileProviders.Physical": "2.0.0"
        },
        "runtime": {
          "lib/netstandard2.0/Microsoft.Extensions.Configuration.FileExtensions.dll": {
            "assemblyVersion": "2.0.0.0",
            "fileVersion": "2.0.0.17205"
          }
        }
      },
      "Microsoft.Extensions.Configuration.Json/2.0.0": {
        "dependencies": {
          "Microsoft.Extensions.Configuration": "2.1.0",
          "Microsoft.Extensions.Configuration.FileExtensions": "2.0.0",
          "Newtonsoft.Json": "12.0.3"
        },
        "runtime": {
          "lib/netstandard2.0/Microsoft.Extensions.Configuration.Json.dll": {
            "assemblyVersion": "2.0.0.0",
            "fileVersion": "2.0.0.17205"
          }
        }
      },
      "Microsoft.Extensions.DependencyInjection/2.1.0": {
        "dependencies": {
          "Microsoft.Extensions.DependencyInjection.Abstractions": "2.1.1"
        },
        "runtime": {
          "lib/netstandard2.0/Microsoft.Extensions.DependencyInjection.dll": {
            "assemblyVersion": "2.1.0.0",
            "fileVersion": "2.1.0.18136"
          }
        }
      },
      "Microsoft.Extensions.DependencyInjection.Abstractions/2.1.1": {
        "runtime": {
          "lib/netstandard2.0/Microsoft.Extensions.DependencyInjection.Abstractions.dll": {
            "assemblyVersion": "2.1.1.0",
            "fileVersion": "2.1.1.18157"
          }
        }
      },
      "Microsoft.Extensions.FileProviders.Abstractions/2.0.0": {
        "dependencies": {
          "Microsoft.Extensions.Primitives": "2.1.0"
        },
        "runtime": {
          "lib/netstandard2.0/Microsoft.Extensions.FileProviders.Abstractions.dll": {
            "assemblyVersion": "2.0.0.0",
            "fileVersion": "2.0.0.17205"
          }
        }
      },
      "Microsoft.Extensions.FileProviders.Physical/2.0.0": {
        "dependencies": {
          "Microsoft.Extensions.FileProviders.Abstractions": "2.0.0",
          "Microsoft.Extensions.FileSystemGlobbing": "2.0.0"
        },
        "runtime": {
          "lib/netstandard2.0/Microsoft.Extensions.FileProviders.Physical.dll": {
            "assemblyVersion": "2.0.0.0",
            "fileVersion": "2.0.0.17205"
          }
        }
      },
      "Microsoft.Extensions.FileSystemGlobbing/2.0.0": {
        "runtime": {
          "lib/netstandard2.0/Microsoft.Extensions.FileSystemGlobbing.dll": {
            "assemblyVersion": "2.0.0.0",
            "fileVersion": "2.0.0.17205"
          }
        }
      },
      "Microsoft.Extensions.Http/2.1.0": {
        "dependencies": {
          "Microsoft.Extensions.DependencyInjection.Abstractions": "2.1.1",
          "Microsoft.Extensions.Logging": "2.1.0",
          "Microsoft.Extensions.Options": "2.1.0"
        },
        "runtime": {
          "lib/netstandard2.0/Microsoft.Extensions.Http.dll": {
            "assemblyVersion": "2.1.0.0",
            "fileVersion": "2.1.0.18136"
          }
        }
      },
      "Microsoft.Extensions.Identity.Core/2.1.0": {
        "dependencies": {
          "Microsoft.AspNetCore.Cryptography.KeyDerivation": "2.1.0",
          "Microsoft.Extensions.Logging": "2.1.0",
          "Microsoft.Extensions.Options": "2.1.0",
          "System.ComponentModel.Annotations": "4.5.0"
        },
        "runtime": {
          "lib/netstandard2.0/Microsoft.Extensions.Identity.Core.dll": {
            "assemblyVersion": "2.1.0.0",
            "fileVersion": "2.1.0.18136"
          }
        }
      },
      "Microsoft.Extensions.Logging/2.1.0": {
        "dependencies": {
          "Microsoft.Extensions.Configuration.Binder": "2.1.0",
          "Microsoft.Extensions.DependencyInjection.Abstractions": "2.1.1",
          "Microsoft.Extensions.Logging.Abstractions": "2.1.0",
          "Microsoft.Extensions.Options": "2.1.0"
        },
        "runtime": {
          "lib/netstandard2.0/Microsoft.Extensions.Logging.dll": {
            "assemblyVersion": "2.1.0.0",
            "fileVersion": "2.1.0.18136"
          }
        }
      },
      "Microsoft.Extensions.Logging.Abstractions/2.1.0": {
        "runtime": {
          "lib/netstandard2.0/Microsoft.Extensions.Logging.Abstractions.dll": {
            "assemblyVersion": "2.1.0.0",
            "fileVersion": "2.1.0.18136"
          }
        }
      },
      "Microsoft.Extensions.Options/2.1.0": {
        "dependencies": {
          "Microsoft.Extensions.DependencyInjection.Abstractions": "2.1.1",
          "Microsoft.Extensions.Primitives": "2.1.0"
        },
        "runtime": {
          "lib/netstandard2.0/Microsoft.Extensions.Options.dll": {
            "assemblyVersion": "2.1.0.0",
            "fileVersion": "2.1.0.18136"
          }
        }
      },
      "Microsoft.Extensions.Primitives/2.1.0": {
        "dependencies": {
          "System.Memory": "4.5.0",
          "System.Runtime.CompilerServices.Unsafe": "4.7.0"
        },
        "runtime": {
          "lib/netstandard2.0/Microsoft.Extensions.Primitives.dll": {
            "assemblyVersion": "2.1.0.0",
            "fileVersion": "2.1.0.18136"
          }
        }
      },
      "Microsoft.NETCore.Platforms/1.1.0": {},
      "Microsoft.NETCore.Targets/1.1.0": {},
      "NETStandard.Library/2.0.3": {
        "dependencies": {
          "Microsoft.NETCore.Platforms": "1.1.0"
        }
      },
      "Newtonsoft.Json/12.0.3": {
        "runtime": {
          "lib/netstandard2.0/Newtonsoft.Json.dll": {
            "assemblyVersion": "12.0.0.0",
            "fileVersion": "12.0.3.23909"
          }
        }
      },
      "Portable.BouncyCastle/1.8.5.2": {
        "runtime": {
          "lib/netstandard2.0/BouncyCastle.Crypto.dll": {
            "assemblyVersion": "1.8.5.0",
            "fileVersion": "1.8.5.2"
          }
        }
      },
      "runtime.debian.8-x64.runtime.native.System.Security.Cryptography.OpenSsl/4.3.2": {},
      "runtime.fedora.23-x64.runtime.native.System.Security.Cryptography.OpenSsl/4.3.2": {},
      "runtime.fedora.24-x64.runtime.native.System.Security.Cryptography.OpenSsl/4.3.2": {},
      "runtime.native.System/4.3.0": {
        "dependencies": {
          "Microsoft.NETCore.Platforms": "1.1.0",
          "Microsoft.NETCore.Targets": "1.1.0"
        }
      },
      "runtime.native.System.Net.Http/4.3.0": {
        "dependencies": {
          "Microsoft.NETCore.Platforms": "1.1.0",
          "Microsoft.NETCore.Targets": "1.1.0"
        }
      },
      "runtime.native.System.Security.Cryptography.Apple/4.3.1": {
        "dependencies": {
          "runtime.osx.10.10-x64.runtime.native.System.Security.Cryptography.Apple": "4.3.1"
        }
      },
      "runtime.native.System.Security.Cryptography.OpenSsl/4.3.2": {
        "dependencies": {
          "runtime.debian.8-x64.runtime.native.System.Security.Cryptography.OpenSsl": "4.3.2",
          "runtime.fedora.23-x64.runtime.native.System.Security.Cryptography.OpenSsl": "4.3.2",
          "runtime.fedora.24-x64.runtime.native.System.Security.Cryptography.OpenSsl": "4.3.2",
          "runtime.opensuse.13.2-x64.runtime.native.System.Security.Cryptography.OpenSsl": "4.3.2",
          "runtime.opensuse.42.1-x64.runtime.native.System.Security.Cryptography.OpenSsl": "4.3.2",
          "runtime.osx.10.10-x64.runtime.native.System.Security.Cryptography.OpenSsl": "4.3.2",
          "runtime.rhel.7-x64.runtime.native.System.Security.Cryptography.OpenSsl": "4.3.2",
          "runtime.ubuntu.14.04-x64.runtime.native.System.Security.Cryptography.OpenSsl": "4.3.2",
          "runtime.ubuntu.16.04-x64.runtime.native.System.Security.Cryptography.OpenSsl": "4.3.2",
          "runtime.ubuntu.16.10-x64.runtime.native.System.Security.Cryptography.OpenSsl": "4.3.2"
        }
      },
      "runtime.opensuse.13.2-x64.runtime.native.System.Security.Cryptography.OpenSsl/4.3.2": {},
      "runtime.opensuse.42.1-x64.runtime.native.System.Security.Cryptography.OpenSsl/4.3.2": {},
      "runtime.osx.10.10-x64.runtime.native.System.Security.Cryptography.Apple/4.3.1": {},
      "runtime.osx.10.10-x64.runtime.native.System.Security.Cryptography.OpenSsl/4.3.2": {},
      "runtime.rhel.7-x64.runtime.native.System.Security.Cryptography.OpenSsl/4.3.2": {},
      "runtime.ubuntu.14.04-x64.runtime.native.System.Security.Cryptography.OpenSsl/4.3.2": {},
      "runtime.ubuntu.16.04-x64.runtime.native.System.Security.Cryptography.OpenSsl/4.3.2": {},
      "runtime.ubuntu.16.10-x64.runtime.native.System.Security.Cryptography.OpenSsl/4.3.2": {},
      "SharedServices.Core/1.0.0.27": {
        "dependencies": {
          "Application.Common": "1.0.0.29",
          "Microsoft.Extensions.DependencyInjection": "2.1.0",
          "Microsoft.Extensions.Http": "2.1.0"
        },
        "runtime": {
          "lib/netstandard2.0/SharedServices.Core.dll": {
            "assemblyVersion": "1.0.0.0",
            "fileVersion": "1.0.0.0"
          }
        }
      },
      "SocketLabs.EmailDelivery/1.0.0.4": {
        "dependencies": {
          "Newtonsoft.Json": "12.0.3",
          "System.Net.Http": "4.3.3"
        },
        "runtime": {
          "lib/netstandard2.0/SocketLabs.dll": {
            "assemblyVersion": "1.0.0.4",
            "fileVersion": "1.0.0.4"
          }
        }
      },
      "System.Buffers/4.4.0": {
        "runtime": {
          "lib/netstandard2.0/System.Buffers.dll": {
            "assemblyVersion": "4.0.2.0",
            "fileVersion": "4.6.25519.3"
          }
        }
      },
      "System.Collections/4.3.0": {
        "dependencies": {
          "Microsoft.NETCore.Platforms": "1.1.0",
          "Microsoft.NETCore.Targets": "1.1.0",
          "System.Runtime": "4.3.0"
        }
      },
      "System.Collections.Concurrent/4.3.0": {
        "dependencies": {
          "System.Collections": "4.3.0",
          "System.Diagnostics.Debug": "4.3.0",
          "System.Diagnostics.Tracing": "4.3.0",
          "System.Globalization": "4.3.0",
          "System.Reflection": "4.3.0",
          "System.Resources.ResourceManager": "4.3.0",
          "System.Runtime": "4.3.0",
          "System.Runtime.Extensions": "4.3.0",
          "System.Threading": "4.3.0",
          "System.Threading.Tasks": "4.3.0"
        },
        "runtime": {
          "lib/netstandard1.3/System.Collections.Concurrent.dll": {
            "assemblyVersion": "4.0.13.0",
            "fileVersion": "4.6.24705.1"
          }
        }
      },
      "System.Collections.NonGeneric/4.3.0": {
        "dependencies": {
          "System.Diagnostics.Debug": "4.3.0",
          "System.Globalization": "4.3.0",
          "System.Resources.ResourceManager": "4.3.0",
          "System.Runtime": "4.3.0",
          "System.Runtime.Extensions": "4.3.0",
          "System.Threading": "4.3.0"
        },
        "runtime": {
          "lib/netstandard1.3/System.Collections.NonGeneric.dll": {
            "assemblyVersion": "4.0.2.0",
            "fileVersion": "4.6.24705.1"
          }
        }
      },
      "System.Collections.Specialized/4.3.0": {
        "dependencies": {
          "System.Collections.NonGeneric": "4.3.0",
          "System.Globalization": "4.3.0",
          "System.Globalization.Extensions": "4.3.0",
          "System.Resources.ResourceManager": "4.3.0",
          "System.Runtime": "4.3.0",
          "System.Runtime.Extensions": "4.3.0",
          "System.Threading": "4.3.0"
        },
        "runtime": {
          "lib/netstandard1.3/System.Collections.Specialized.dll": {
            "assemblyVersion": "4.0.2.0",
            "fileVersion": "4.6.24705.1"
          }
        }
      },
      "System.ComponentModel/4.3.0": {
        "dependencies": {
          "System.Runtime": "4.3.0"
        },
        "runtime": {
          "lib/netstandard1.3/System.ComponentModel.dll": {
            "assemblyVersion": "4.0.2.0",
            "fileVersion": "4.6.24705.1"
          }
        }
      },
      "System.ComponentModel.Annotations/4.5.0": {
        "runtime": {
          "lib/netstandard2.0/System.ComponentModel.Annotations.dll": {
            "assemblyVersion": "4.2.1.0",
            "fileVersion": "4.6.26515.6"
          }
        }
      },
      "System.ComponentModel.Primitives/4.3.0": {
        "dependencies": {
          "System.ComponentModel": "4.3.0",
          "System.Resources.ResourceManager": "4.3.0",
          "System.Runtime": "4.3.0"
        },
        "runtime": {
          "lib/netstandard1.0/System.ComponentModel.Primitives.dll": {
            "assemblyVersion": "4.1.1.0",
            "fileVersion": "4.6.24705.1"
          }
        }
      },
      "System.ComponentModel.TypeConverter/4.3.0": {
        "dependencies": {
          "System.Collections": "4.3.0",
          "System.Collections.NonGeneric": "4.3.0",
          "System.Collections.Specialized": "4.3.0",
          "System.ComponentModel": "4.3.0",
          "System.ComponentModel.Primitives": "4.3.0",
          "System.Globalization": "4.3.0",
          "System.Linq": "4.3.0",
          "System.Reflection": "4.3.0",
          "System.Reflection.Extensions": "4.3.0",
          "System.Reflection.Primitives": "4.3.0",
          "System.Reflection.TypeExtensions": "4.7.0",
          "System.Resources.ResourceManager": "4.3.0",
          "System.Runtime": "4.3.0",
          "System.Runtime.Extensions": "4.3.0",
          "System.Threading": "4.3.0"
        },
        "runtime": {
          "lib/netstandard1.5/System.ComponentModel.TypeConverter.dll": {
            "assemblyVersion": "4.1.1.0",
            "fileVersion": "4.6.24705.1"
          }
        }
      },
      "System.Data.Common/4.3.0": {
        "dependencies": {
          "System.Collections": "4.3.0",
          "System.Globalization": "4.3.0",
          "System.IO": "4.3.0",
          "System.Resources.ResourceManager": "4.3.0",
          "System.Runtime": "4.3.0",
          "System.Runtime.Extensions": "4.3.0",
          "System.Text.RegularExpressions": "4.3.0",
          "System.Threading.Tasks": "4.3.0"
        },
        "runtime": {
          "lib/netstandard1.2/System.Data.Common.dll": {
            "assemblyVersion": "4.1.1.0",
            "fileVersion": "4.6.24705.1"
          }
        }
      },
      "System.Diagnostics.Debug/4.3.0": {
        "dependencies": {
          "Microsoft.NETCore.Platforms": "1.1.0",
          "Microsoft.NETCore.Targets": "1.1.0",
          "System.Runtime": "4.3.0"
        }
      },
      "System.Diagnostics.DiagnosticSource/4.3.0": {
        "dependencies": {
          "System.Collections": "4.3.0",
          "System.Diagnostics.Tracing": "4.3.0",
          "System.Reflection": "4.3.0",
          "System.Runtime": "4.3.0",
          "System.Threading": "4.3.0"
        },
        "runtime": {
          "lib/netstandard1.3/System.Diagnostics.DiagnosticSource.dll": {
            "assemblyVersion": "4.0.1.0",
            "fileVersion": "4.6.24705.1"
          }
        }
      },
      "System.Diagnostics.Tools/4.3.0": {
        "dependencies": {
          "Microsoft.NETCore.Platforms": "1.1.0",
          "Microsoft.NETCore.Targets": "1.1.0",
          "System.Runtime": "4.3.0"
        }
      },
      "System.Diagnostics.Tracing/4.3.0": {
        "dependencies": {
          "Microsoft.NETCore.Platforms": "1.1.0",
          "Microsoft.NETCore.Targets": "1.1.0",
          "System.Runtime": "4.3.0"
        }
      },
      "System.Drawing.Common/4.7.0": {
        "runtime": {
          "lib/netstandard2.0/System.Drawing.Common.dll": {
            "assemblyVersion": "4.0.0.1",
            "fileVersion": "4.6.26919.2"
          }
        }
      },
      "System.Globalization/4.3.0": {
        "dependencies": {
          "Microsoft.NETCore.Platforms": "1.1.0",
          "Microsoft.NETCore.Targets": "1.1.0",
          "System.Runtime": "4.3.0"
        }
      },
      "System.Globalization.Calendars/4.3.0": {
        "dependencies": {
          "Microsoft.NETCore.Platforms": "1.1.0",
          "Microsoft.NETCore.Targets": "1.1.0",
          "System.Globalization": "4.3.0",
          "System.Runtime": "4.3.0"
        }
      },
      "System.Globalization.Extensions/4.3.0": {
        "dependencies": {
          "Microsoft.NETCore.Platforms": "1.1.0",
          "System.Globalization": "4.3.0",
          "System.Resources.ResourceManager": "4.3.0",
          "System.Runtime": "4.3.0",
          "System.Runtime.Extensions": "4.3.0",
          "System.Runtime.InteropServices": "4.3.0"
        }
      },
      "System.IO/4.3.0": {
        "dependencies": {
          "Microsoft.NETCore.Platforms": "1.1.0",
          "Microsoft.NETCore.Targets": "1.1.0",
          "System.Runtime": "4.3.0",
          "System.Text.Encoding": "4.3.0",
          "System.Threading.Tasks": "4.3.0"
        }
      },
      "System.IO.FileSystem/4.3.0": {
        "dependencies": {
          "Microsoft.NETCore.Platforms": "1.1.0",
          "Microsoft.NETCore.Targets": "1.1.0",
          "System.IO": "4.3.0",
          "System.IO.FileSystem.Primitives": "4.3.0",
          "System.Runtime": "4.3.0",
          "System.Runtime.Handles": "4.3.0",
          "System.Text.Encoding": "4.3.0",
          "System.Threading.Tasks": "4.3.0"
        }
      },
      "System.IO.FileSystem.Primitives/4.3.0": {
        "dependencies": {
          "System.Runtime": "4.3.0"
        },
        "runtime": {
          "lib/netstandard1.3/System.IO.FileSystem.Primitives.dll": {
            "assemblyVersion": "4.0.2.0",
            "fileVersion": "4.6.24705.1"
          }
        }
      },
      "System.IO.Packaging/4.4.0": {
        "dependencies": {
          "NETStandard.Library": "2.0.3"
        },
        "runtime": {
          "lib/netstandard1.3/System.IO.Packaging.dll": {
            "assemblyVersion": "4.0.2.0",
            "fileVersion": "4.6.25519.3"
          }
        }
      },
      "System.Linq/4.3.0": {
        "dependencies": {
          "System.Collections": "4.3.0",
          "System.Diagnostics.Debug": "4.3.0",
          "System.Resources.ResourceManager": "4.3.0",
          "System.Runtime": "4.3.0",
          "System.Runtime.Extensions": "4.3.0"
        },
        "runtime": {
          "lib/netstandard1.6/System.Linq.dll": {
            "assemblyVersion": "4.1.1.0",
            "fileVersion": "4.6.24705.1"
          }
        }
      },
      "System.Memory/4.5.0": {
        "dependencies": {
          "System.Buffers": "4.4.0",
          "System.Numerics.Vectors": "4.4.0",
          "System.Runtime.CompilerServices.Unsafe": "4.7.0"
        },
        "runtime": {
          "lib/netstandard2.0/System.Memory.dll": {
            "assemblyVersion": "4.0.1.0",
            "fileVersion": "4.6.26515.6"
          }
        }
      },
      "System.Net.Http/4.3.3": {
        "dependencies": {
          "Microsoft.NETCore.Platforms": "1.1.0",
          "System.Collections": "4.3.0",
          "System.Diagnostics.Debug": "4.3.0",
          "System.Diagnostics.DiagnosticSource": "4.3.0",
          "System.Diagnostics.Tracing": "4.3.0",
          "System.Globalization": "4.3.0",
          "System.Globalization.Extensions": "4.3.0",
          "System.IO": "4.3.0",
          "System.IO.FileSystem": "4.3.0",
          "System.Net.Primitives": "4.3.0",
          "System.Resources.ResourceManager": "4.3.0",
          "System.Runtime": "4.3.0",
          "System.Runtime.Extensions": "4.3.0",
          "System.Runtime.Handles": "4.3.0",
          "System.Runtime.InteropServices": "4.3.0",
          "System.Security.Cryptography.Algorithms": "4.3.1",
          "System.Security.Cryptography.Encoding": "4.3.0",
          "System.Security.Cryptography.OpenSsl": "4.3.0",
          "System.Security.Cryptography.Primitives": "4.3.0",
          "System.Security.Cryptography.X509Certificates": "4.3.0",
          "System.Text.Encoding": "4.3.0",
          "System.Threading": "4.3.0",
          "System.Threading.Tasks": "4.3.0",
          "runtime.native.System": "4.3.0",
          "runtime.native.System.Net.Http": "4.3.0",
          "runtime.native.System.Security.Cryptography.OpenSsl": "4.3.2"
        }
      },
      "System.Net.Primitives/4.3.0": {
        "dependencies": {
          "Microsoft.NETCore.Platforms": "1.1.0",
          "Microsoft.NETCore.Targets": "1.1.0",
          "System.Runtime": "4.3.0",
          "System.Runtime.Handles": "4.3.0"
        }
      },
      "System.Net.Requests/4.3.0": {
        "dependencies": {
          "Microsoft.NETCore.Platforms": "1.1.0",
          "System.Collections": "4.3.0",
          "System.Diagnostics.Debug": "4.3.0",
          "System.Diagnostics.Tracing": "4.3.0",
          "System.Globalization": "4.3.0",
          "System.IO": "4.3.0",
          "System.Net.Http": "4.3.3",
          "System.Net.Primitives": "4.3.0",
          "System.Net.WebHeaderCollection": "4.3.0",
          "System.Resources.ResourceManager": "4.3.0",
          "System.Runtime": "4.3.0",
          "System.Threading": "4.3.0",
          "System.Threading.Tasks": "4.3.0"
        }
      },
      "System.Net.WebHeaderCollection/4.3.0": {
        "dependencies": {
          "System.Collections": "4.3.0",
          "System.Resources.ResourceManager": "4.3.0",
          "System.Runtime": "4.3.0",
          "System.Runtime.Extensions": "4.3.0"
        },
        "runtime": {
          "lib/netstandard1.3/System.Net.WebHeaderCollection.dll": {
            "assemblyVersion": "4.0.2.0",
            "fileVersion": "4.6.24705.1"
          }
        }
      },
      "System.Numerics.Vectors/4.4.0": {
        "runtime": {
          "lib/netstandard2.0/System.Numerics.Vectors.dll": {
            "assemblyVersion": "4.1.3.0",
            "fileVersion": "4.6.25519.3"
          }
        }
      },
      "System.Private.DataContractSerialization/4.3.0": {
        "dependencies": {
          "System.Collections": "4.3.0",
          "System.Collections.Concurrent": "4.3.0",
          "System.Diagnostics.Debug": "4.3.0",
          "System.Globalization": "4.3.0",
          "System.IO": "4.3.0",
          "System.Linq": "4.3.0",
          "System.Reflection": "4.3.0",
          "System.Reflection.Emit.ILGeneration": "4.3.0",
          "System.Reflection.Emit.Lightweight": "4.3.0",
          "System.Reflection.Extensions": "4.3.0",
          "System.Reflection.Primitives": "4.3.0",
          "System.Reflection.TypeExtensions": "4.7.0",
          "System.Resources.ResourceManager": "4.3.0",
          "System.Runtime": "4.3.0",
          "System.Runtime.Extensions": "4.3.0",
          "System.Runtime.Serialization.Primitives": "4.3.0",
          "System.Text.Encoding": "4.3.0",
          "System.Text.Encoding.Extensions": "4.3.0",
          "System.Text.RegularExpressions": "4.3.0",
          "System.Threading": "4.3.0",
          "System.Threading.Tasks": "4.3.0",
          "System.Xml.ReaderWriter": "4.3.1",
          "System.Xml.XDocument": "4.3.0",
          "System.Xml.XmlDocument": "4.3.0",
          "System.Xml.XmlSerializer": "4.3.0"
        },
        "runtime": {
          "lib/netstandard1.3/System.Private.DataContractSerialization.dll": {
            "assemblyVersion": "4.1.2.0",
            "fileVersion": "4.6.24705.1"
          }
        }
      },
      "System.Reflection/4.3.0": {
        "dependencies": {
          "Microsoft.NETCore.Platforms": "1.1.0",
          "Microsoft.NETCore.Targets": "1.1.0",
          "System.IO": "4.3.0",
          "System.Reflection.Primitives": "4.3.0",
          "System.Runtime": "4.3.0"
        }
      },
      "System.Reflection.Emit/4.3.0": {
        "dependencies": {
          "System.IO": "4.3.0",
          "System.Reflection": "4.3.0",
          "System.Reflection.Emit.ILGeneration": "4.3.0",
          "System.Reflection.Primitives": "4.3.0",
          "System.Runtime": "4.3.0"
        },
        "runtime": {
          "lib/netstandard1.3/System.Reflection.Emit.dll": {
            "assemblyVersion": "4.0.2.0",
            "fileVersion": "4.6.24705.1"
          }
        }
      },
      "System.Reflection.Emit.ILGeneration/4.3.0": {
        "dependencies": {
          "System.Reflection": "4.3.0",
          "System.Reflection.Primitives": "4.3.0",
          "System.Runtime": "4.3.0"
        },
        "runtime": {
          "lib/netstandard1.3/System.Reflection.Emit.ILGeneration.dll": {
            "assemblyVersion": "4.0.2.0",
            "fileVersion": "4.6.24705.1"
          }
        }
      },
      "System.Reflection.Emit.Lightweight/4.3.0": {
        "dependencies": {
          "System.Reflection": "4.3.0",
          "System.Reflection.Emit.ILGeneration": "4.3.0",
          "System.Reflection.Primitives": "4.3.0",
          "System.Runtime": "4.3.0"
        },
        "runtime": {
          "lib/netstandard1.3/System.Reflection.Emit.Lightweight.dll": {
            "assemblyVersion": "4.0.2.0",
            "fileVersion": "4.6.24705.1"
          }
        }
      },
      "System.Reflection.Extensions/4.3.0": {
        "dependencies": {
          "Microsoft.NETCore.Platforms": "1.1.0",
          "Microsoft.NETCore.Targets": "1.1.0",
          "System.Reflection": "4.3.0",
          "System.Runtime": "4.3.0"
        }
      },
      "System.Reflection.Primitives/4.3.0": {
        "dependencies": {
          "Microsoft.NETCore.Platforms": "1.1.0",
          "Microsoft.NETCore.Targets": "1.1.0",
          "System.Runtime": "4.3.0"
        }
      },
      "System.Reflection.TypeExtensions/4.7.0": {
        "runtime": {
          "lib/netstandard2.0/System.Reflection.TypeExtensions.dll": {
            "assemblyVersion": "4.1.5.0",
            "fileVersion": "4.700.19.56404"
          }
        }
      },
      "System.Resources.ResourceManager/4.3.0": {
        "dependencies": {
          "Microsoft.NETCore.Platforms": "1.1.0",
          "Microsoft.NETCore.Targets": "1.1.0",
          "System.Globalization": "4.3.0",
          "System.Reflection": "4.3.0",
          "System.Runtime": "4.3.0"
        }
      },
      "System.Runtime/4.3.0": {
        "dependencies": {
          "Microsoft.NETCore.Platforms": "1.1.0",
          "Microsoft.NETCore.Targets": "1.1.0"
        }
      },
      "System.Runtime.CompilerServices.Unsafe/4.7.0": {
        "runtime": {
          "lib/netstandard2.0/System.Runtime.CompilerServices.Unsafe.dll": {
            "assemblyVersion": "4.0.6.0",
            "fileVersion": "4.700.19.56404"
          }
        }
      },
      "System.Runtime.Extensions/4.3.0": {
        "dependencies": {
          "Microsoft.NETCore.Platforms": "1.1.0",
          "Microsoft.NETCore.Targets": "1.1.0",
          "System.Runtime": "4.3.0"
        }
      },
      "System.Runtime.Handles/4.3.0": {
        "dependencies": {
          "Microsoft.NETCore.Platforms": "1.1.0",
          "Microsoft.NETCore.Targets": "1.1.0",
          "System.Runtime": "4.3.0"
        }
      },
      "System.Runtime.InteropServices/4.3.0": {
        "dependencies": {
          "Microsoft.NETCore.Platforms": "1.1.0",
          "Microsoft.NETCore.Targets": "1.1.0",
          "System.Reflection": "4.3.0",
          "System.Reflection.Primitives": "4.3.0",
          "System.Runtime": "4.3.0",
          "System.Runtime.Handles": "4.3.0"
        }
      },
      "System.Runtime.Loader/4.3.0": {
        "dependencies": {
          "System.IO": "4.3.0",
          "System.Reflection": "4.3.0",
          "System.Runtime": "4.3.0"
        },
        "runtime": {
          "lib/netstandard1.5/System.Runtime.Loader.dll": {
            "assemblyVersion": "4.0.1.0",
            "fileVersion": "4.6.24705.1"
          }
        }
      },
      "System.Runtime.Numerics/4.3.0": {
        "dependencies": {
          "System.Globalization": "4.3.0",
          "System.Resources.ResourceManager": "4.3.0",
          "System.Runtime": "4.3.0",
          "System.Runtime.Extensions": "4.3.0"
        },
        "runtime": {
          "lib/netstandard1.3/System.Runtime.Numerics.dll": {
            "assemblyVersion": "4.0.2.0",
            "fileVersion": "4.6.24705.1"
          }
        }
      },
      "System.Runtime.Serialization.Primitives/4.3.0": {
        "dependencies": {
          "System.Resources.ResourceManager": "4.3.0",
          "System.Runtime": "4.3.0"
        },
        "runtime": {
          "lib/netstandard1.3/System.Runtime.Serialization.Primitives.dll": {
            "assemblyVersion": "4.1.2.0",
            "fileVersion": "4.6.24705.1"
          }
        }
      },
      "System.Runtime.Serialization.Xml/4.3.0": {
        "dependencies": {
          "System.IO": "4.3.0",
          "System.Private.DataContractSerialization": "4.3.0",
          "System.Runtime": "4.3.0",
          "System.Runtime.Serialization.Primitives": "4.3.0",
          "System.Text.Encoding": "4.3.0",
          "System.Xml.ReaderWriter": "4.3.1"
        },
        "runtime": {
          "lib/netstandard1.3/System.Runtime.Serialization.Xml.dll": {
            "assemblyVersion": "4.1.2.0",
            "fileVersion": "4.6.24705.1"
          }
        }
      },
      "System.Security.Claims/4.3.0": {
        "dependencies": {
          "System.Collections": "4.3.0",
          "System.Globalization": "4.3.0",
          "System.IO": "4.3.0",
          "System.Resources.ResourceManager": "4.3.0",
          "System.Runtime": "4.3.0",
          "System.Runtime.Extensions": "4.3.0",
          "System.Security.Principal": "4.3.0"
        },
        "runtime": {
          "lib/netstandard1.3/System.Security.Claims.dll": {
            "assemblyVersion": "4.0.2.0",
            "fileVersion": "4.6.24705.1"
          }
        }
      },
      "System.Security.Cryptography.Algorithms/4.3.1": {
        "dependencies": {
          "Microsoft.NETCore.Platforms": "1.1.0",
          "System.Collections": "4.3.0",
          "System.IO": "4.3.0",
          "System.Resources.ResourceManager": "4.3.0",
          "System.Runtime": "4.3.0",
          "System.Runtime.Extensions": "4.3.0",
          "System.Runtime.Handles": "4.3.0",
          "System.Runtime.InteropServices": "4.3.0",
          "System.Runtime.Numerics": "4.3.0",
          "System.Security.Cryptography.Encoding": "4.3.0",
          "System.Security.Cryptography.Primitives": "4.3.0",
          "System.Text.Encoding": "4.3.0",
          "runtime.native.System.Security.Cryptography.Apple": "4.3.1",
          "runtime.native.System.Security.Cryptography.OpenSsl": "4.3.2"
        }
      },
      "System.Security.Cryptography.Cng/4.3.0": {
        "dependencies": {
          "Microsoft.NETCore.Platforms": "1.1.0",
          "System.IO": "4.3.0",
          "System.Resources.ResourceManager": "4.3.0",
          "System.Runtime": "4.3.0",
          "System.Runtime.Extensions": "4.3.0",
          "System.Runtime.Handles": "4.3.0",
          "System.Runtime.InteropServices": "4.3.0",
          "System.Security.Cryptography.Algorithms": "4.3.1",
          "System.Security.Cryptography.Encoding": "4.3.0",
          "System.Security.Cryptography.Primitives": "4.3.0",
          "System.Text.Encoding": "4.3.0"
        }
      },
      "System.Security.Cryptography.Csp/4.3.0": {
        "dependencies": {
          "Microsoft.NETCore.Platforms": "1.1.0",
          "System.IO": "4.3.0",
          "System.Reflection": "4.3.0",
          "System.Resources.ResourceManager": "4.3.0",
          "System.Runtime": "4.3.0",
          "System.Runtime.Extensions": "4.3.0",
          "System.Runtime.Handles": "4.3.0",
          "System.Runtime.InteropServices": "4.3.0",
          "System.Security.Cryptography.Algorithms": "4.3.1",
          "System.Security.Cryptography.Encoding": "4.3.0",
          "System.Security.Cryptography.Primitives": "4.3.0",
          "System.Text.Encoding": "4.3.0",
          "System.Threading": "4.3.0"
        }
      },
      "System.Security.Cryptography.Encoding/4.3.0": {
        "dependencies": {
          "Microsoft.NETCore.Platforms": "1.1.0",
          "System.Collections": "4.3.0",
          "System.Collections.Concurrent": "4.3.0",
          "System.Linq": "4.3.0",
          "System.Resources.ResourceManager": "4.3.0",
          "System.Runtime": "4.3.0",
          "System.Runtime.Extensions": "4.3.0",
          "System.Runtime.Handles": "4.3.0",
          "System.Runtime.InteropServices": "4.3.0",
          "System.Security.Cryptography.Primitives": "4.3.0",
          "System.Text.Encoding": "4.3.0",
          "runtime.native.System.Security.Cryptography.OpenSsl": "4.3.2"
        }
      },
      "System.Security.Cryptography.OpenSsl/4.3.0": {
        "dependencies": {
          "System.Collections": "4.3.0",
          "System.IO": "4.3.0",
          "System.Resources.ResourceManager": "4.3.0",
          "System.Runtime": "4.3.0",
          "System.Runtime.Extensions": "4.3.0",
          "System.Runtime.Handles": "4.3.0",
          "System.Runtime.InteropServices": "4.3.0",
          "System.Runtime.Numerics": "4.3.0",
          "System.Security.Cryptography.Algorithms": "4.3.1",
          "System.Security.Cryptography.Encoding": "4.3.0",
          "System.Security.Cryptography.Primitives": "4.3.0",
          "System.Text.Encoding": "4.3.0",
          "runtime.native.System.Security.Cryptography.OpenSsl": "4.3.2"
        },
        "runtime": {
          "lib/netstandard1.6/System.Security.Cryptography.OpenSsl.dll": {
            "assemblyVersion": "4.0.0.0",
            "fileVersion": "1.0.24212.1"
          }
        }
      },
      "System.Security.Cryptography.Pkcs/4.4.0": {
        "runtime": {
          "lib/netstandard2.0/System.Security.Cryptography.Pkcs.dll": {
            "assemblyVersion": "4.0.2.0",
            "fileVersion": "4.6.25519.3"
          }
        }
      },
      "System.Security.Cryptography.Primitives/4.3.0": {
        "dependencies": {
          "System.Diagnostics.Debug": "4.3.0",
          "System.Globalization": "4.3.0",
          "System.IO": "4.3.0",
          "System.Resources.ResourceManager": "4.3.0",
          "System.Runtime": "4.3.0",
          "System.Threading": "4.3.0",
          "System.Threading.Tasks": "4.3.0"
        },
        "runtime": {
          "lib/netstandard1.3/System.Security.Cryptography.Primitives.dll": {
            "assemblyVersion": "4.0.1.0",
            "fileVersion": "4.6.24705.1"
          }
        }
      },
      "System.Security.Cryptography.X509Certificates/4.3.0": {
        "dependencies": {
          "Microsoft.NETCore.Platforms": "1.1.0",
          "System.Collections": "4.3.0",
          "System.Diagnostics.Debug": "4.3.0",
          "System.Globalization": "4.3.0",
          "System.Globalization.Calendars": "4.3.0",
          "System.IO": "4.3.0",
          "System.IO.FileSystem": "4.3.0",
          "System.IO.FileSystem.Primitives": "4.3.0",
          "System.Resources.ResourceManager": "4.3.0",
          "System.Runtime": "4.3.0",
          "System.Runtime.Extensions": "4.3.0",
          "System.Runtime.Handles": "4.3.0",
          "System.Runtime.InteropServices": "4.3.0",
          "System.Runtime.Numerics": "4.3.0",
          "System.Security.Cryptography.Algorithms": "4.3.1",
          "System.Security.Cryptography.Cng": "4.3.0",
          "System.Security.Cryptography.Csp": "4.3.0",
          "System.Security.Cryptography.Encoding": "4.3.0",
          "System.Security.Cryptography.OpenSsl": "4.3.0",
          "System.Security.Cryptography.Primitives": "4.3.0",
          "System.Text.Encoding": "4.3.0",
          "System.Threading": "4.3.0",
          "runtime.native.System": "4.3.0",
          "runtime.native.System.Net.Http": "4.3.0",
          "runtime.native.System.Security.Cryptography.OpenSsl": "4.3.2"
        }
      },
      "System.Security.Principal/4.3.0": {
        "dependencies": {
          "System.Runtime": "4.3.0"
        },
        "runtime": {
          "lib/netstandard1.0/System.Security.Principal.dll": {
            "assemblyVersion": "4.0.2.0",
            "fileVersion": "4.6.24705.1"
          }
        }
      },
      "System.Text.Encoding/4.3.0": {
        "dependencies": {
          "Microsoft.NETCore.Platforms": "1.1.0",
          "Microsoft.NETCore.Targets": "1.1.0",
          "System.Runtime": "4.3.0"
        }
      },
      "System.Text.Encoding.CodePages/4.7.0": {
        "dependencies": {
          "System.Runtime.CompilerServices.Unsafe": "4.7.0"
        },
        "runtime": {
          "lib/netstandard2.0/System.Text.Encoding.CodePages.dll": {
            "assemblyVersion": "4.1.3.0",
            "fileVersion": "4.700.19.56404"
          }
        }
      },
      "System.Text.Encoding.Extensions/4.3.0": {
        "dependencies": {
          "Microsoft.NETCore.Platforms": "1.1.0",
          "Microsoft.NETCore.Targets": "1.1.0",
          "System.Runtime": "4.3.0",
          "System.Text.Encoding": "4.3.0"
        }
      },
      "System.Text.RegularExpressions/4.3.0": {
        "dependencies": {
          "System.Collections": "4.3.0",
          "System.Globalization": "4.3.0",
          "System.Resources.ResourceManager": "4.3.0",
          "System.Runtime": "4.3.0",
          "System.Runtime.Extensions": "4.3.0",
          "System.Threading": "4.3.0"
        },
        "runtime": {
          "lib/netstandard1.6/System.Text.RegularExpressions.dll": {
            "assemblyVersion": "4.1.1.0",
            "fileVersion": "4.6.24705.1"
          }
        }
      },
      "System.Threading/4.3.0": {
        "dependencies": {
          "System.Runtime": "4.3.0",
          "System.Threading.Tasks": "4.3.0"
        },
        "runtime": {
          "lib/netstandard1.3/System.Threading.dll": {
            "assemblyVersion": "4.0.12.0",
            "fileVersion": "4.6.24705.1"
          }
        }
      },
      "System.Threading.Tasks/4.3.0": {
        "dependencies": {
          "Microsoft.NETCore.Platforms": "1.1.0",
          "Microsoft.NETCore.Targets": "1.1.0",
          "System.Runtime": "4.3.0"
        }
      },
      "System.Threading.Tasks.Extensions/4.3.0": {
        "dependencies": {
          "System.Collections": "4.3.0",
          "System.Runtime": "4.3.0",
          "System.Threading.Tasks": "4.3.0"
        },
        "runtime": {
          "lib/netstandard1.0/System.Threading.Tasks.Extensions.dll": {
            "assemblyVersion": "4.1.0.0",
            "fileVersion": "4.6.24705.1"
          }
        }
      },
      "System.Xml.ReaderWriter/4.3.1": {
        "dependencies": {
          "System.Collections": "4.3.0",
          "System.Diagnostics.Debug": "4.3.0",
          "System.Globalization": "4.3.0",
          "System.IO": "4.3.0",
          "System.IO.FileSystem": "4.3.0",
          "System.IO.FileSystem.Primitives": "4.3.0",
          "System.Resources.ResourceManager": "4.3.0",
          "System.Runtime": "4.3.0",
          "System.Runtime.Extensions": "4.3.0",
          "System.Runtime.InteropServices": "4.3.0",
          "System.Text.Encoding": "4.3.0",
          "System.Text.Encoding.Extensions": "4.3.0",
          "System.Text.RegularExpressions": "4.3.0",
          "System.Threading.Tasks": "4.3.0",
          "System.Threading.Tasks.Extensions": "4.3.0"
        },
        "runtime": {
          "lib/netstandard1.3/System.Xml.ReaderWriter.dll": {
            "assemblyVersion": "4.1.0.0",
            "fileVersion": "4.6.26011.1"
          }
        }
      },
      "System.Xml.XDocument/4.3.0": {
        "dependencies": {
          "System.Collections": "4.3.0",
          "System.Diagnostics.Debug": "4.3.0",
          "System.Diagnostics.Tools": "4.3.0",
          "System.Globalization": "4.3.0",
          "System.IO": "4.3.0",
          "System.Reflection": "4.3.0",
          "System.Resources.ResourceManager": "4.3.0",
          "System.Runtime": "4.3.0",
          "System.Runtime.Extensions": "4.3.0",
          "System.Text.Encoding": "4.3.0",
          "System.Threading": "4.3.0",
          "System.Xml.ReaderWriter": "4.3.1"
        },
        "runtime": {
          "lib/netstandard1.3/System.Xml.XDocument.dll": {
            "assemblyVersion": "4.0.12.0",
            "fileVersion": "4.6.24705.1"
          }
        }
      },
      "System.Xml.XmlDocument/4.3.0": {
        "dependencies": {
          "System.Collections": "4.3.0",
          "System.Diagnostics.Debug": "4.3.0",
          "System.Globalization": "4.3.0",
          "System.IO": "4.3.0",
          "System.Resources.ResourceManager": "4.3.0",
          "System.Runtime": "4.3.0",
          "System.Runtime.Extensions": "4.3.0",
          "System.Text.Encoding": "4.3.0",
          "System.Threading": "4.3.0",
          "System.Xml.ReaderWriter": "4.3.1"
        },
        "runtime": {
          "lib/netstandard1.3/System.Xml.XmlDocument.dll": {
            "assemblyVersion": "4.0.2.0",
            "fileVersion": "4.6.24705.1"
          }
        }
      },
      "System.Xml.XmlSerializer/4.3.0": {
        "dependencies": {
          "System.Collections": "4.3.0",
          "System.Globalization": "4.3.0",
          "System.IO": "4.3.0",
          "System.Linq": "4.3.0",
          "System.Reflection": "4.3.0",
          "System.Reflection.Emit": "4.3.0",
          "System.Reflection.Emit.ILGeneration": "4.3.0",
          "System.Reflection.Extensions": "4.3.0",
          "System.Reflection.Primitives": "4.3.0",
          "System.Reflection.TypeExtensions": "4.7.0",
          "System.Resources.ResourceManager": "4.3.0",
          "System.Runtime": "4.3.0",
          "System.Runtime.Extensions": "4.3.0",
          "System.Text.RegularExpressions": "4.3.0",
          "System.Threading": "4.3.0",
          "System.Xml.ReaderWriter": "4.3.1",
          "System.Xml.XmlDocument": "4.3.0"
        },
        "runtime": {
          "lib/netstandard1.3/System.Xml.XmlSerializer.dll": {
            "assemblyVersion": "4.0.12.0",
            "fileVersion": "4.6.24705.1"
          }
        }
      },
      "System.Xml.XPath/4.3.0": {
        "dependencies": {
          "System.Collections": "4.3.0",
          "System.Diagnostics.Debug": "4.3.0",
          "System.Globalization": "4.3.0",
          "System.IO": "4.3.0",
          "System.Resources.ResourceManager": "4.3.0",
          "System.Runtime": "4.3.0",
          "System.Runtime.Extensions": "4.3.0",
          "System.Threading": "4.3.0",
          "System.Xml.ReaderWriter": "4.3.1"
        },
        "runtime": {
          "lib/netstandard1.3/System.Xml.XPath.dll": {
            "assemblyVersion": "4.0.2.0",
            "fileVersion": "4.6.24705.1"
          }
        }
      },
      "System.Xml.XPath.XmlDocument/4.3.0": {
        "dependencies": {
          "System.Collections": "4.3.0",
          "System.Globalization": "4.3.0",
          "System.IO": "4.3.0",
          "System.Resources.ResourceManager": "4.3.0",
          "System.Runtime": "4.3.0",
          "System.Runtime.Extensions": "4.3.0",
          "System.Threading": "4.3.0",
          "System.Xml.ReaderWriter": "4.3.1",
          "System.Xml.XPath": "4.3.0",
          "System.Xml.XmlDocument": "4.3.0"
        },
        "runtime": {
          "lib/netstandard1.3/System.Xml.XPath.XmlDocument.dll": {
            "assemblyVersion": "4.0.2.0",
            "fileVersion": "4.6.24705.1"
          }
        }
      },
      "Axiobat.Application/1.0.0": {
        "dependencies": {
          "AutoMapper": "9.0.0",
          "AutoMapper.Extensions.Microsoft.DependencyInjection": "7.0.0",
          "Axiobat.Domain": "1.0.0",
          "DnsClient": "1.2.0",
          "FluentValidation": "8.6.1",
          "Microsoft.Extensions.DependencyInjection.Abstractions": "2.1.1",
          "Microsoft.Extensions.Identity.Core": "2.1.0"
        },
        "runtime": {
          "Axiobat.Application.dll": {}
        }
      },
      "Axiobat.Domain/1.0.0": {
        "dependencies": {
          "Application.Common": "1.0.0.29",
          "Microsoft.CSharp": "4.7.0",
          "Newtonsoft.Json": "12.0.3"
        },
        "runtime": {
          "Axiobat.Domain.dll": {}
        }
      }
    }
  },
  "libraries": {
    "Axiobat.Infrastructure/1.0.0": {
      "type": "project",
      "serviceable": false,
      "sha512": ""
    },
    "Application.Common/1.0.0.29": {
      "type": "package",
      "serviceable": true,
      "sha512": "sha512-hrIVXLFk730vgekCj2AYCji1iRB8x5N68Vz37SdI9p3ctYPhM7K7i+6Wk65XyPpdFRnkGiftMsdd7TLTNLLiPQ==",
      "path": "application.common/1.0.0.29",
      "hashPath": "application.common.1.0.0.29.nupkg.sha512"
    },
    "AutoMapper/9.0.0": {
      "type": "package",
      "serviceable": true,
      "sha512": "sha512-xCqvoxT4HIrNY/xlXG9W+BA/awdrhWvMTKTK/igkGSRbhOhpl3Q8O8Gxlhzjc9JsYqE7sS6AxgyuUUvZ6R5/Bw==",
      "path": "automapper/9.0.0",
      "hashPath": "automapper.9.0.0.nupkg.sha512"
    },
    "AutoMapper.Extensions.Microsoft.DependencyInjection/7.0.0": {
      "type": "package",
      "serviceable": true,
      "sha512": "sha512-szI4yeRIM7GWe9JyekW0dKYehPB0t6M+I55fPeCebN6PhS7zQZa0eG3bgOnOx+eP3caSNoE7KEJs2rk7MLsh8w==",
      "path": "automapper.extensions.microsoft.dependencyinjection/7.0.0",
      "hashPath": "automapper.extensions.microsoft.dependencyinjection.7.0.0.nupkg.sha512"
    },
    "DnsClient/1.2.0": {
      "type": "package",
      "serviceable": true,
      "sha512": "sha512-P34wUkeqU4FoQiOMV8OjpdeDZKs4d3r+VlHuKJ6eO5feiZgna3+9MF5orHRUn3DAv1g/HPE5hlkGucmxmsFfBw==",
      "path": "dnsclient/1.2.0",
      "hashPath": "dnsclient.1.2.0.nupkg.sha512"
    },
    "DocumentFormat.OpenXml/2.8.1": {
      "type": "package",
      "serviceable": true,
      "sha512": "sha512-VW2mN1bwqsdR7Bfj8RfooeBpmjYOrjGqXh/AWNXDExxzf56YGOMsHs/lo7B2BVudBE7H62QoxNqCmgClgJQ7Iw==",
      "path": "documentformat.openxml/2.8.1",
      "hashPath": "documentformat.openxml.2.8.1.nupkg.sha512"
    },
    "EPPlus/4.5.1": {
      "type": "package",
      "serviceable": true,
      "sha512": "sha512-rMf9NC7jcRRA/whINWiIYoquj3iXioTIg4plgT1vvVwKQ2DtIVfD3UDDArD/MZvLjsm1Hx68GmrTinHXREWpKQ==",
      "path": "epplus/4.5.1",
      "hashPath": "epplus.4.5.1.nupkg.sha512"
    },
    "FluentValidation/8.6.1": {
      "type": "package",
      "serviceable": true,
      "sha512": "sha512-g0xw/YCVgJ1IYpBgKF9iuci/Arf6Dsq9H/WeeT9zaBpjrEA+Cr2GjWXHu1F0DKqVzp4J4hta4gGrRt6H4aESqQ==",
      "path": "fluentvalidation/8.6.1",
      "hashPath": "fluentvalidation.8.6.1.nupkg.sha512"
    },
    "Google.Apis/1.44.0": {
      "type": "package",
      "serviceable": true,
      "sha512": "sha512-8s0/UJWT/r7FEXObFTykRcmYauxU1Xi8IC3HHtYWRT9nUg51m1TjMMoLeBJUkuHw+O1y/Upkkj1ehJJea2naQg==",
      "path": "google.apis/1.44.0",
      "hashPath": "google.apis.1.44.0.nupkg.sha512"
    },
    "Google.Apis.Auth/1.44.0": {
      "type": "package",
      "serviceable": true,
      "sha512": "sha512-DB8J2R0fOmX+Am8jMa03W2N1b//U3w4H4QuR3/CjnxuBTeJ42n5kO1EfEX7ikqItyPpC7e9MNLmYID05AwdgxA==",
      "path": "google.apis.auth/1.44.0",
      "hashPath": "google.apis.auth.1.44.0.nupkg.sha512"
    },
    "Google.Apis.Calendar.v3/1.44.0.1879": {
      "type": "package",
      "serviceable": true,
      "sha512": "sha512-aYeUM2gL8fvyVwz8lMZwPaEFlAY6/+i96XGi5216naE1ODiib0Dwzs4AqZ0tF144p1TC3rPhtrtkT5LwuKHqSw==",
      "path": "google.apis.calendar.v3/1.44.0.1879",
      "hashPath": "google.apis.calendar.v3.1.44.0.1879.nupkg.sha512"
    },
    "Google.Apis.Core/1.44.0": {
      "type": "package",
      "serviceable": true,
      "sha512": "sha512-cgpYSP+UCgdkt14qEiToHmurbAjqAfTyT/DcguqTwKNYlm90BRI3FS0soWm3ldIa5ckdrriPwcd1gStiXWSusQ==",
      "path": "google.apis.core/1.44.0",
      "hashPath": "google.apis.core.1.44.0.nupkg.sha512"
    },
    "iTextSharp.LGPLv2.Core/1.6.2": {
      "type": "package",
      "serviceable": true,
      "sha512": "sha512-otX4WMJbG5mZrxzY73Tc3G719mRvjXlh8VTz9/wdGUHcGucyfDSjgF5cEqqjOrElORXvOr8salmP9KdAfpUwyA==",
      "path": "itextsharp.lgplv2.core/1.6.2",
      "hashPath": "itextsharp.lgplv2.core.1.6.2.nupkg.sha512"
    },
    "Microsoft.AspNetCore.Cryptography.Internal/2.1.0": {
      "type": "package",
      "serviceable": true,
      "sha512": "sha512-oqKoj5d+zR7/R2T03jq69fJ5w48dJ3Yw+XO3ORJGIV7Vd4eJhwvAOpEQKC3vWyQIKZWEkndIxaWMbfODJY/vsQ==",
      "path": "microsoft.aspnetcore.cryptography.internal/2.1.0",
      "hashPath": "microsoft.aspnetcore.cryptography.internal.2.1.0.nupkg.sha512"
    },
    "Microsoft.AspNetCore.Cryptography.KeyDerivation/2.1.0": {
      "type": "package",
      "serviceable": true,
      "sha512": "sha512-13LH47Gj9SAY8BReIypBOQKT1Imlt1h11mbhk5rtI0s7R0jti7pjxZUKZEiVK8o9NUAGfL0yF6A2PXLRImBZ+w==",
      "path": "microsoft.aspnetcore.cryptography.keyderivation/2.1.0",
      "hashPath": "microsoft.aspnetcore.cryptography.keyderivation.2.1.0.nupkg.sha512"
    },
    "Microsoft.CSharp/4.7.0": {
      "type": "package",
      "serviceable": true,
      "sha512": "sha512-pTj+D3uJWyN3My70i2Hqo+OXixq3Os2D1nJ2x92FFo6sk8fYS1m1WLNTs0Dc1uPaViH0YvEEwvzddQ7y4rhXmA==",
      "path": "microsoft.csharp/4.7.0",
      "hashPath": "microsoft.csharp.4.7.0.nupkg.sha512"
    },
    "Microsoft.Extensions.Configuration/2.1.0": {
      "type": "package",
      "serviceable": true,
      "sha512": "sha512-SS8ce1GYQTkZoOq5bskqQ+m7xiXQjnKRiGfVNZkkX2SX0HpXNRsKnSUaywRRuCje3v2KT9xeacsM3J9/G2exsQ==",
      "path": "microsoft.extensions.configuration/2.1.0",
      "hashPath": "microsoft.extensions.configuration.2.1.0.nupkg.sha512"
    },
    "Microsoft.Extensions.Configuration.Abstractions/2.1.0": {
      "type": "package",
      "serviceable": true,
      "sha512": "sha512-lMmUjAKvY9r6QmxCS15iSb6ulhwnh0zp44NtnVJ+HIDLFmu4iej41U+dU58On8NRezmlgRXiQtLnBeZSzYNKQg==",
      "path": "microsoft.extensions.configuration.abstractions/2.1.0",
      "hashPath": "microsoft.extensions.configuration.abstractions.2.1.0.nupkg.sha512"
    },
    "Microsoft.Extensions.Configuration.Binder/2.1.0": {
      "type": "package",
      "serviceable": true,
      "sha512": "sha512-Fls0O54Ielz1DiVYpcmiUpeizN1iKGGI5yAWAoShfmUvMcQ8jAGOK1a+DaflHA5hN9IOKvmSos0yewDYAIY0ZA==",
      "path": "microsoft.extensions.configuration.binder/2.1.0",
      "hashPath": "microsoft.extensions.configuration.binder.2.1.0.nupkg.sha512"
    },
    "Microsoft.Extensions.Configuration.FileExtensions/2.0.0": {
      "type": "package",
      "serviceable": true,
      "sha512": "sha512-ebFbu+vsz4rzeAICWavk9a0FutWVs7aNZap5k/IVxVhu2CnnhOp/H/gNtpzplrqjYDaNYdmv9a/DoUvH2ynVEQ==",
      "path": "microsoft.extensions.configuration.fileextensions/2.0.0",
      "hashPath": "microsoft.extensions.configuration.fileextensions.2.0.0.nupkg.sha512"
    },
    "Microsoft.Extensions.Configuration.Json/2.0.0": {
      "type": "package",
      "serviceable": true,
      "sha512": "sha512-thPz4SckRGNqeLbdvJ619YxRFSkWuL1K5QqTMb3TVdEwjQj4O39yfUtjtI/XlWJiY7JKK4MUKAiQZVYc8ohKKg==",
      "path": "microsoft.extensions.configuration.json/2.0.0",
      "hashPath": "microsoft.extensions.configuration.json.2.0.0.nupkg.sha512"
    },
    "Microsoft.Extensions.DependencyInjection/2.1.0": {
      "type": "package",
      "serviceable": true,
      "sha512": "sha512-gqQviLfuA31PheEGi+XJoZc1bc9H9RsPa9Gq9XuDct7XGWSR9eVXjK5Sg7CSUPhTFHSuxUFY12wcTYLZ4zM1hg==",
      "path": "microsoft.extensions.dependencyinjection/2.1.0",
      "hashPath": "microsoft.extensions.dependencyinjection.2.1.0.nupkg.sha512"
    },
    "Microsoft.Extensions.DependencyInjection.Abstractions/2.1.1": {
      "type": "package",
      "serviceable": true,
      "sha512": "sha512-MgYpU5cwZohUMKKg3sbPhvGG+eAZ/59E9UwPwlrUkyXU+PGzqwZg9yyQNjhxuAWmoNoFReoemeCku50prYSGzA==",
      "path": "microsoft.extensions.dependencyinjection.abstractions/2.1.1",
      "hashPath": "microsoft.extensions.dependencyinjection.abstractions.2.1.1.nupkg.sha512"
    },
    "Microsoft.Extensions.FileProviders.Abstractions/2.0.0": {
      "type": "package",
      "serviceable": true,
      "sha512": "sha512-Z0AK+hmLO33WAXQ5P1uPzhH7z5yjDHX/XnUefXxE//SyvCb9x4cVjND24dT5566t/yzGp8/WLD7EG9KQKZZklQ==",
      "path": "microsoft.extensions.fileproviders.abstractions/2.0.0",
      "hashPath": "microsoft.extensions.fileproviders.abstractions.2.0.0.nupkg.sha512"
    },
    "Microsoft.Extensions.FileProviders.Physical/2.0.0": {
      "type": "package",
      "serviceable": true,
      "sha512": "sha512-DKO2j2socZbHNCCVEWsLVpB3AQIIzKYFNyITVeWdA1jQ829GJIQf4MUD04+1c+Q2kbK03pIKQZmEy4CGIfgDZw==",
      "path": "microsoft.extensions.fileproviders.physical/2.0.0",
      "hashPath": "microsoft.extensions.fileproviders.physical.2.0.0.nupkg.sha512"
    },
    "Microsoft.Extensions.FileSystemGlobbing/2.0.0": {
      "type": "package",
      "serviceable": true,
      "sha512": "sha512-UC87vRDUB7/vSaNY/FVhbdAyRkfFBTkYmcUoglxk6TyTojhSqYaG5pZsoP4e1ZuXktFXJXJBTvK8U/QwCo0z3g==",
      "path": "microsoft.extensions.filesystemglobbing/2.0.0",
      "hashPath": "microsoft.extensions.filesystemglobbing.2.0.0.nupkg.sha512"
    },
    "Microsoft.Extensions.Http/2.1.0": {
      "type": "package",
      "serviceable": true,
      "sha512": "sha512-vkSkGa1UIZVlAd18oDhrtoawN/q7fDemJcVpT9+28mP7bP0I8zKLSLRwqF++GmPs/7e0Aqlo6jpZm3P7YYS0ag==",
      "path": "microsoft.extensions.http/2.1.0",
      "hashPath": "microsoft.extensions.http.2.1.0.nupkg.sha512"
    },
    "Microsoft.Extensions.Identity.Core/2.1.0": {
      "type": "package",
      "serviceable": true,
      "sha512": "sha512-ANFe9HR9thO9CU9x8mc7h1uw75Aqz5uDe7xgGM6t2iBITEidLNhULzqPidI0xV2Mg54pdPMA8/vtS5FRLCQWgQ==",
      "path": "microsoft.extensions.identity.core/2.1.0",
      "hashPath": "microsoft.extensions.identity.core.2.1.0.nupkg.sha512"
    },
    "Microsoft.Extensions.Logging/2.1.0": {
      "type": "package",
      "serviceable": true,
      "sha512": "sha512-kuZbZMMHb7ibzhLdn9/R1+PAAFKntlF10tOw4loB8VuQkHvSrBE6IzW1rhBLsEdmLXOgi2zFbwcXFrxzSM6ybA==",
      "path": "microsoft.extensions.logging/2.1.0",
      "hashPath": "microsoft.extensions.logging.2.1.0.nupkg.sha512"
    },
    "Microsoft.Extensions.Logging.Abstractions/2.1.0": {
      "type": "package",
      "serviceable": true,
      "sha512": "sha512-GfD2VtvN9z1W+m6pZZe98yh9VWTSdNY2dZSxtca9uFIY6aBI6twvskMvLO/ktClBOTQmAov/7Em+IWFlHepa0A==",
      "path": "microsoft.extensions.logging.abstractions/2.1.0",
      "hashPath": "microsoft.extensions.logging.abstractions.2.1.0.nupkg.sha512"
    },
    "Microsoft.Extensions.Options/2.1.0": {
      "type": "package",
      "serviceable": true,
      "sha512": "sha512-VOM1pPMi9+7/4Vc9aPLU8btHOBQy1+AvpqxLxFI2OVtqGv+1klPaV59g9R6aSt2U7ijfB3TjvAO4Tc/cn9/hxA==",
      "path": "microsoft.extensions.options/2.1.0",
      "hashPath": "microsoft.extensions.options.2.1.0.nupkg.sha512"
    },
    "Microsoft.Extensions.Primitives/2.1.0": {
      "type": "package",
      "serviceable": true,
      "sha512": "sha512-gMwH6wgWOPfyfLfMLEP+ZF7/MSJq35e0xxKEYUjt8veEznY45nBVqdfI876+9SFQq2ChcqKf2UyYc2XYj2v27w==",
      "path": "microsoft.extensions.primitives/2.1.0",
      "hashPath": "microsoft.extensions.primitives.2.1.0.nupkg.sha512"
    },
    "Microsoft.NETCore.Platforms/1.1.0": {
      "type": "package",
      "serviceable": true,
      "sha512": "sha512-kz0PEW2lhqygehI/d6XsPCQzD7ff7gUJaVGPVETX611eadGsA3A877GdSlU0LRVMCTH/+P3o2iDTak+S08V2+A==",
      "path": "microsoft.netcore.platforms/1.1.0",
      "hashPath": "microsoft.netcore.platforms.1.1.0.nupkg.sha512"
    },
    "Microsoft.NETCore.Targets/1.1.0": {
      "type": "package",
      "serviceable": true,
      "sha512": "sha512-aOZA3BWfz9RXjpzt0sRJJMjAscAUm3Hoa4UWAfceV9UTYxgwZ1lZt5nO2myFf+/jetYQo4uTP7zS8sJY67BBxg==",
      "path": "microsoft.netcore.targets/1.1.0",
      "hashPath": "microsoft.netcore.targets.1.1.0.nupkg.sha512"
    },
    "NETStandard.Library/2.0.3": {
      "type": "package",
      "serviceable": true,
      "sha512": "sha512-st47PosZSHrjECdjeIzZQbzivYBJFv6P2nv4cj2ypdI204DO+vZ7l5raGMiX4eXMJ53RfOIg+/s4DHVZ54Nu2A==",
      "path": "netstandard.library/2.0.3",
      "hashPath": "netstandard.library.2.0.3.nupkg.sha512"
    },
    "Newtonsoft.Json/12.0.3": {
      "type": "package",
      "serviceable": true,
      "sha512": "sha512-6mgjfnRB4jKMlzHSl+VD+oUc1IebOZabkbyWj2RiTgWwYPPuaK1H97G1sHqGwPlS5npiF5Q0OrxN1wni2n5QWg==",
      "path": "newtonsoft.json/12.0.3",
      "hashPath": "newtonsoft.json.12.0.3.nupkg.sha512"
    },
    "Portable.BouncyCastle/1.8.5.2": {
      "type": "package",
      "serviceable": true,
      "sha512": "sha512-iLfdr+T33QrDpsvcKRbMVk0PnjqE4hcrbgc6IH+A1BdPAThZlMB9s5TtFANhVVtdS+0oN3yIivgXRPRET7zuZw==",
      "path": "portable.bouncycastle/1.8.5.2",
      "hashPath": "portable.bouncycastle.1.8.5.2.nupkg.sha512"
    },
    "runtime.debian.8-x64.runtime.native.System.Security.Cryptography.OpenSsl/4.3.2": {
      "type": "package",
      "serviceable": true,
      "sha512": "sha512-7VSGO0URRKoMEAq0Sc9cRz8mb6zbyx/BZDEWhgPdzzpmFhkam3fJ1DAGWFXBI4nGlma+uPKpfuMQP5LXRnOH5g==",
      "path": "runtime.debian.8-x64.runtime.native.system.security.cryptography.openssl/4.3.2",
      "hashPath": "runtime.debian.8-x64.runtime.native.system.security.cryptography.openssl.4.3.2.nupkg.sha512"
    },
    "runtime.fedora.23-x64.runtime.native.System.Security.Cryptography.OpenSsl/4.3.2": {
      "type": "package",
      "serviceable": true,
      "sha512": "sha512-0oAaTAm6e2oVH+/Zttt0cuhGaePQYKII1dY8iaqP7CvOpVKgLybKRFvQjXR2LtxXOXTVPNv14j0ot8uV+HrUmw==",
      "path": "runtime.fedora.23-x64.runtime.native.system.security.cryptography.openssl/4.3.2",
      "hashPath": "runtime.fedora.23-x64.runtime.native.system.security.cryptography.openssl.4.3.2.nupkg.sha512"
    },
    "runtime.fedora.24-x64.runtime.native.System.Security.Cryptography.OpenSsl/4.3.2": {
      "type": "package",
      "serviceable": true,
      "sha512": "sha512-G24ibsCNi5Kbz0oXWynBoRgtGvsw5ZSVEWjv13/KiCAM8C6wz9zzcCniMeQFIkJ2tasjo2kXlvlBZhplL51kGg==",
      "path": "runtime.fedora.24-x64.runtime.native.system.security.cryptography.openssl/4.3.2",
      "hashPath": "runtime.fedora.24-x64.runtime.native.system.security.cryptography.openssl.4.3.2.nupkg.sha512"
    },
    "runtime.native.System/4.3.0": {
      "type": "package",
      "serviceable": true,
      "sha512": "sha512-c/qWt2LieNZIj1jGnVNsE2Kl23Ya2aSTBuXMD6V7k9KWr6l16Tqdwq+hJScEpWER9753NWC8h96PaVNY5Ld7Jw==",
      "path": "runtime.native.system/4.3.0",
      "hashPath": "runtime.native.system.4.3.0.nupkg.sha512"
    },
    "runtime.native.System.Net.Http/4.3.0": {
      "type": "package",
      "serviceable": true,
      "sha512": "sha512-ZVuZJqnnegJhd2k/PtAbbIcZ3aZeITq3sj06oKfMBSfphW3HDmk/t4ObvbOk/JA/swGR0LNqMksAh/f7gpTROg==",
      "path": "runtime.native.system.net.http/4.3.0",
      "hashPath": "runtime.native.system.net.http.4.3.0.nupkg.sha512"
    },
    "runtime.native.System.Security.Cryptography.Apple/4.3.1": {
      "type": "package",
      "serviceable": true,
      "sha512": "sha512-UPrVPlqPRSVZaB4ADmbsQ77KXn9ORiWXyA1RP2W2+byCh3bhgT1bQz0jbeOoog9/2oTQ5wWZSDSMeb74MjezcA==",
      "path": "runtime.native.system.security.cryptography.apple/4.3.1",
      "hashPath": "runtime.native.system.security.cryptography.apple.4.3.1.nupkg.sha512"
    },
    "runtime.native.System.Security.Cryptography.OpenSsl/4.3.2": {
      "type": "package",
      "serviceable": true,
      "sha512": "sha512-QR1OwtwehHxSeQvZKXe+iSd+d3XZNkEcuWMFYa2i0aG1l+lR739HPicKMlTbJst3spmeekDVBUS7SeS26s4U/g==",
      "path": "runtime.native.system.security.cryptography.openssl/4.3.2",
      "hashPath": "runtime.native.system.security.cryptography.openssl.4.3.2.nupkg.sha512"
    },
    "runtime.opensuse.13.2-x64.runtime.native.System.Security.Cryptography.OpenSsl/4.3.2": {
      "type": "package",
      "serviceable": true,
      "sha512": "sha512-I+GNKGg2xCHueRd1m9PzeEW7WLbNNLznmTuEi8/vZX71HudUbx1UTwlGkiwMri7JLl8hGaIAWnA/GONhu+LOyQ==",
      "path": "runtime.opensuse.13.2-x64.runtime.native.system.security.cryptography.openssl/4.3.2",
      "hashPath": "runtime.opensuse.13.2-x64.runtime.native.system.security.cryptography.openssl.4.3.2.nupkg.sha512"
    },
    "runtime.opensuse.42.1-x64.runtime.native.System.Security.Cryptography.OpenSsl/4.3.2": {
      "type": "package",
      "serviceable": true,
      "sha512": "sha512-1Z3TAq1ytS1IBRtPXJvEUZdVsfWfeNEhBkbiOCGEl9wwAfsjP2lz3ZFDx5tq8p60/EqbS0HItG5piHuB71RjoA==",
      "path": "runtime.opensuse.42.1-x64.runtime.native.system.security.cryptography.openssl/4.3.2",
      "hashPath": "runtime.opensuse.42.1-x64.runtime.native.system.security.cryptography.openssl.4.3.2.nupkg.sha512"
    },
    "runtime.osx.10.10-x64.runtime.native.System.Security.Cryptography.Apple/4.3.1": {
      "type": "package",
      "serviceable": true,
      "sha512": "sha512-t15yGf5r6vMV1rB5O6TgfXKChtCaN3niwFw44M2ImX3eZ8yzueplqMqXPCbWzoBDHJVz9fE+9LFUGCsUmS2Jgg==",
      "path": "runtime.osx.10.10-x64.runtime.native.system.security.cryptography.apple/4.3.1",
      "hashPath": "runtime.osx.10.10-x64.runtime.native.system.security.cryptography.apple.4.3.1.nupkg.sha512"
    },
    "runtime.osx.10.10-x64.runtime.native.System.Security.Cryptography.OpenSsl/4.3.2": {
      "type": "package",
      "serviceable": true,
      "sha512": "sha512-6mU/cVmmHtQiDXhnzUImxIcDL48GbTk+TsptXyJA+MIOG9LRjPoAQC/qBFB7X+UNyK86bmvGwC8t+M66wsYC8w==",
      "path": "runtime.osx.10.10-x64.runtime.native.system.security.cryptography.openssl/4.3.2",
      "hashPath": "runtime.osx.10.10-x64.runtime.native.system.security.cryptography.openssl.4.3.2.nupkg.sha512"
    },
    "runtime.rhel.7-x64.runtime.native.System.Security.Cryptography.OpenSsl/4.3.2": {
      "type": "package",
      "serviceable": true,
      "sha512": "sha512-vjwG0GGcTW/PPg6KVud8F9GLWYuAV1rrw1BKAqY0oh4jcUqg15oYF1+qkGR2x2ZHM4DQnWKQ7cJgYbfncz/lYg==",
      "path": "runtime.rhel.7-x64.runtime.native.system.security.cryptography.openssl/4.3.2",
      "hashPath": "runtime.rhel.7-x64.runtime.native.system.security.cryptography.openssl.4.3.2.nupkg.sha512"
    },
    "runtime.ubuntu.14.04-x64.runtime.native.System.Security.Cryptography.OpenSsl/4.3.2": {
      "type": "package",
      "serviceable": true,
      "sha512": "sha512-7KMFpTkHC/zoExs+PwP8jDCWcrK9H6L7soowT80CUx3e+nxP/AFnq0AQAW5W76z2WYbLAYCRyPfwYFG6zkvQRw==",
      "path": "runtime.ubuntu.14.04-x64.runtime.native.system.security.cryptography.openssl/4.3.2",
      "hashPath": "runtime.ubuntu.14.04-x64.runtime.native.system.security.cryptography.openssl.4.3.2.nupkg.sha512"
    },
    "runtime.ubuntu.16.04-x64.runtime.native.System.Security.Cryptography.OpenSsl/4.3.2": {
      "type": "package",
      "serviceable": true,
      "sha512": "sha512-xrlmRCnKZJLHxyyLIqkZjNXqgxnKdZxfItrPkjI+6pkRo5lHX8YvSZlWrSI5AVwLMi4HbNWP7064hcAWeZKp5w==",
      "path": "runtime.ubuntu.16.04-x64.runtime.native.system.security.cryptography.openssl/4.3.2",
      "hashPath": "runtime.ubuntu.16.04-x64.runtime.native.system.security.cryptography.openssl.4.3.2.nupkg.sha512"
    },
    "runtime.ubuntu.16.10-x64.runtime.native.System.Security.Cryptography.OpenSsl/4.3.2": {
      "type": "package",
      "serviceable": true,
      "sha512": "sha512-leXiwfiIkW7Gmn7cgnNcdtNAU70SjmKW3jxGj1iKHOvdn0zRWsgv/l2OJUO5zdGdiv2VRFnAsxxhDgMzofPdWg==",
      "path": "runtime.ubuntu.16.10-x64.runtime.native.system.security.cryptography.openssl/4.3.2",
      "hashPath": "runtime.ubuntu.16.10-x64.runtime.native.system.security.cryptography.openssl.4.3.2.nupkg.sha512"
    },
    "SharedServices.Core/1.0.0.27": {
      "type": "package",
      "serviceable": true,
      "sha512": "sha512-csGbrqCH6yzECKv0jrENQ5ka8i2V8VaF10T3C+29Jw5a6cH0g4iLYbT4JRVmslznng6KRVVNSU5DPFD/SBM8dQ==",
      "path": "sharedservices.core/1.0.0.27",
      "hashPath": "sharedservices.core.1.0.0.27.nupkg.sha512"
    },
    "SocketLabs.EmailDelivery/1.0.0.4": {
      "type": "package",
      "serviceable": true,
      "sha512": "sha512-E06UqwPCeRtKAN8tNFMj7lF4gecLP96FrW5yPAeBLOCB3ujL2xm8ZK2yXMrHMUsdZc6Gc5epbVRlCk0mpmZcIQ==",
      "path": "socketlabs.emaildelivery/1.0.0.4",
      "hashPath": "socketlabs.emaildelivery.1.0.0.4.nupkg.sha512"
    },
    "System.Buffers/4.4.0": {
      "type": "package",
      "serviceable": true,
      "sha512": "sha512-AwarXzzoDwX6BgrhjoJsk6tUezZEozOT5Y9QKF94Gl4JK91I4PIIBkBco9068Y9/Dra8Dkbie99kXB8+1BaYKw==",
      "path": "system.buffers/4.4.0",
      "hashPath": "system.buffers.4.4.0.nupkg.sha512"
    },
    "System.Collections/4.3.0": {
      "type": "package",
      "serviceable": true,
      "sha512": "sha512-3Dcj85/TBdVpL5Zr+gEEBUuFe2icOnLalmEh9hfck1PTYbbyWuZgh4fmm2ysCLTrqLQw6t3TgTyJ+VLp+Qb+Lw==",
      "path": "system.collections/4.3.0",
      "hashPath": "system.collections.4.3.0.nupkg.sha512"
    },
    "System.Collections.Concurrent/4.3.0": {
      "type": "package",
      "serviceable": true,
      "sha512": "sha512-ztl69Xp0Y/UXCL+3v3tEU+lIy+bvjKNUmopn1wep/a291pVPK7dxBd6T7WnlQqRog+d1a/hSsgRsmFnIBKTPLQ==",
      "path": "system.collections.concurrent/4.3.0",
      "hashPath": "system.collections.concurrent.4.3.0.nupkg.sha512"
    },
    "System.Collections.NonGeneric/4.3.0": {
      "type": "package",
      "serviceable": true,
      "sha512": "sha512-prtjIEMhGUnQq6RnPEYLpFt8AtLbp9yq2zxOSrY7KJJZrw25Fi97IzBqY7iqssbM61Ek5b8f3MG/sG1N2sN5KA==",
      "path": "system.collections.nongeneric/4.3.0",
      "hashPath": "system.collections.nongeneric.4.3.0.nupkg.sha512"
    },
    "System.Collections.Specialized/4.3.0": {
      "type": "package",
      "serviceable": true,
      "sha512": "sha512-Epx8PoVZR0iuOnJJDzp7pWvdfMMOAvpUo95pC4ScH2mJuXkKA2Y4aR3cG9qt2klHgSons1WFh4kcGW7cSXvrxg==",
      "path": "system.collections.specialized/4.3.0",
      "hashPath": "system.collections.specialized.4.3.0.nupkg.sha512"
    },
    "System.ComponentModel/4.3.0": {
      "type": "package",
      "serviceable": true,
      "sha512": "sha512-VyGn1jGRZVfxnh8EdvDCi71v3bMXrsu8aYJOwoV7SNDLVhiEqwP86pPMyRGsDsxhXAm2b3o9OIqeETfN5qfezw==",
      "path": "system.componentmodel/4.3.0",
      "hashPath": "system.componentmodel.4.3.0.nupkg.sha512"
    },
    "System.ComponentModel.Annotations/4.5.0": {
      "type": "package",
      "serviceable": true,
      "sha512": "sha512-UxYQ3FGUOtzJ7LfSdnYSFd7+oEv6M8NgUatatIN2HxNtDdlcvFAf+VIq4Of9cDMJEJC0aSRv/x898RYhB4Yppg==",
      "path": "system.componentmodel.annotations/4.5.0",
      "hashPath": "system.componentmodel.annotations.4.5.0.nupkg.sha512"
    },
    "System.ComponentModel.Primitives/4.3.0": {
      "type": "package",
      "serviceable": true,
      "sha512": "sha512-j8GUkCpM8V4d4vhLIIoBLGey2Z5bCkMVNjEZseyAlm4n5arcsJOeI3zkUP+zvZgzsbLTYh4lYeP/ZD/gdIAPrw==",
      "path": "system.componentmodel.primitives/4.3.0",
      "hashPath": "system.componentmodel.primitives.4.3.0.nupkg.sha512"
    },
    "System.ComponentModel.TypeConverter/4.3.0": {
      "type": "package",
      "serviceable": true,
      "sha512": "sha512-16pQ6P+EdhcXzPiEK4kbA953Fu0MNG2ovxTZU81/qsCd1zPRsKc3uif5NgvllCY598k6bI0KUyKW8fanlfaDQg==",
      "path": "system.componentmodel.typeconverter/4.3.0",
      "hashPath": "system.componentmodel.typeconverter.4.3.0.nupkg.sha512"
    },
    "System.Data.Common/4.3.0": {
      "type": "package",
      "serviceable": true,
      "sha512": "sha512-lm6E3T5u7BOuEH0u18JpbJHxBfOJPuCyl4Kg1RH10ktYLp5uEEE1xKrHW56/We4SnZpGAuCc9N0MJpSDhTHZGQ==",
      "path": "system.data.common/4.3.0",
      "hashPath": "system.data.common.4.3.0.nupkg.sha512"
    },
    "System.Diagnostics.Debug/4.3.0": {
      "type": "package",
      "serviceable": true,
      "sha512": "sha512-ZUhUOdqmaG5Jk3Xdb8xi5kIyQYAA4PnTNlHx1mu9ZY3qv4ELIdKbnL/akbGaKi2RnNUWaZsAs31rvzFdewTj2g==",
      "path": "system.diagnostics.debug/4.3.0",
      "hashPath": "system.diagnostics.debug.4.3.0.nupkg.sha512"
    },
    "System.Diagnostics.DiagnosticSource/4.3.0": {
      "type": "package",
      "serviceable": true,
      "sha512": "sha512-tD6kosZnTAGdrEa0tZSuFyunMbt/5KYDnHdndJYGqZoNy00XVXyACd5d6KnE1YgYv3ne2CjtAfNXo/fwEhnKUA==",
      "path": "system.diagnostics.diagnosticsource/4.3.0",
      "hashPath": "system.diagnostics.diagnosticsource.4.3.0.nupkg.sha512"
    },
    "System.Diagnostics.Tools/4.3.0": {
      "type": "package",
      "serviceable": true,
      "sha512": "sha512-UUvkJfSYJMM6x527dJg2VyWPSRqIVB0Z7dbjHst1zmwTXz5CcXSYJFWRpuigfbO1Lf7yfZiIaEUesfnl/g5EyA==",
      "path": "system.diagnostics.tools/4.3.0",
      "hashPath": "system.diagnostics.tools.4.3.0.nupkg.sha512"
    },
    "System.Diagnostics.Tracing/4.3.0": {
      "type": "package",
      "serviceable": true,
      "sha512": "sha512-rswfv0f/Cqkh78rA5S8eN8Neocz234+emGCtTF3lxPY96F+mmmUen6tbn0glN6PMvlKQb9bPAY5e9u7fgPTkKw==",
      "path": "system.diagnostics.tracing/4.3.0",
      "hashPath": "system.diagnostics.tracing.4.3.0.nupkg.sha512"
    },
    "System.Drawing.Common/4.7.0": {
      "type": "package",
      "serviceable": true,
      "sha512": "sha512-v+XbyYHaZjDfn0ENmJEV1VYLgGgCTx1gnfOBcppowbpOAriglYgGCvFCPr2EEZyBvXlpxbEsTwkOlInl107ahA==",
      "path": "system.drawing.common/4.7.0",
      "hashPath": "system.drawing.common.4.7.0.nupkg.sha512"
    },
    "System.Globalization/4.3.0": {
      "type": "package",
      "serviceable": true,
      "sha512": "sha512-kYdVd2f2PAdFGblzFswE4hkNANJBKRmsfa2X5LG2AcWE1c7/4t0pYae1L8vfZ5xvE2nK/R9JprtToA61OSHWIg==",
      "path": "system.globalization/4.3.0",
      "hashPath": "system.globalization.4.3.0.nupkg.sha512"
    },
    "System.Globalization.Calendars/4.3.0": {
      "type": "package",
      "serviceable": true,
      "sha512": "sha512-GUlBtdOWT4LTV3I+9/PJW+56AnnChTaOqqTLFtdmype/L500M2LIyXgmtd9X2P2VOkmJd5c67H5SaC2QcL1bFA==",
      "path": "system.globalization.calendars/4.3.0",
      "hashPath": "system.globalization.calendars.4.3.0.nupkg.sha512"
    },
    "System.Globalization.Extensions/4.3.0": {
      "type": "package",
      "serviceable": true,
      "sha512": "sha512-FhKmdR6MPG+pxow6wGtNAWdZh7noIOpdD5TwQ3CprzgIE1bBBoim0vbR1+AWsWjQmU7zXHgQo4TWSP6lCeiWcQ==",
      "path": "system.globalization.extensions/4.3.0",
      "hashPath": "system.globalization.extensions.4.3.0.nupkg.sha512"
    },
    "System.IO/4.3.0": {
      "type": "package",
      "serviceable": true,
      "sha512": "sha512-3qjaHvxQPDpSOYICjUoTsmoq5u6QJAFRUITgeT/4gqkF1bajbSmb1kwSxEA8AHlofqgcKJcM8udgieRNhaJ5Cg==",
      "path": "system.io/4.3.0",
      "hashPath": "system.io.4.3.0.nupkg.sha512"
    },
    "System.IO.FileSystem/4.3.0": {
      "type": "package",
      "serviceable": true,
      "sha512": "sha512-3wEMARTnuio+ulnvi+hkRNROYwa1kylvYahhcLk4HSoVdl+xxTFVeVlYOfLwrDPImGls0mDqbMhrza8qnWPTdA==",
      "path": "system.io.filesystem/4.3.0",
      "hashPath": "system.io.filesystem.4.3.0.nupkg.sha512"
    },
    "System.IO.FileSystem.Primitives/4.3.0": {
      "type": "package",
      "serviceable": true,
      "sha512": "sha512-6QOb2XFLch7bEc4lIcJH49nJN2HV+OC3fHDgsLVsBVBk3Y4hFAnOBGzJ2lUu7CyDDFo9IBWkSsnbkT6IBwwiMw==",
      "path": "system.io.filesystem.primitives/4.3.0",
      "hashPath": "system.io.filesystem.primitives.4.3.0.nupkg.sha512"
    },
    "System.IO.Packaging/4.4.0": {
      "type": "package",
      "serviceable": true,
      "sha512": "sha512-6Ks0U3YAW5UYGp4jxSwXCHuxHBk7ZmBfCJFhmpvn8jWIOPgXomz2Vd4PYxhaJIDchAcaYRO46Zc/TsqsYSuxhQ==",
      "path": "system.io.packaging/4.4.0",
      "hashPath": "system.io.packaging.4.4.0.nupkg.sha512"
    },
    "System.Linq/4.3.0": {
      "type": "package",
      "serviceable": true,
      "sha512": "sha512-5DbqIUpsDp0dFftytzuMmc0oeMdQwjcP/EWxsksIz/w1TcFRkZ3yKKz0PqiYFMmEwPSWw+qNVqD7PJ889JzHbw==",
      "path": "system.linq/4.3.0",
      "hashPath": "system.linq.4.3.0.nupkg.sha512"
    },
    "System.Memory/4.5.0": {
      "type": "package",
      "serviceable": true,
      "sha512": "sha512-m0psCSpUxTGfvwyO0i03ajXVhgBqyXlibXz0Mo1dtKGjaHrXFLnuQ8rNBTmWRqbfRjr4eC6Wah4X5FfuFDu5og==",
      "path": "system.memory/4.5.0",
      "hashPath": "system.memory.4.5.0.nupkg.sha512"
    },
    "System.Net.Http/4.3.3": {
      "type": "package",
      "serviceable": true,
      "sha512": "sha512-7rCqIbkC/P2+A00NoDH5gnvFhADmX7Dc4INvsOajbU1MVhktE9vZNrjPtF82N6Uo7obK+yzlrPUv/M+snnN/9w==",
      "path": "system.net.http/4.3.3",
      "hashPath": "system.net.http.4.3.3.nupkg.sha512"
    },
    "System.Net.Primitives/4.3.0": {
      "type": "package",
      "serviceable": true,
      "sha512": "sha512-qOu+hDwFwoZPbzPvwut2qATe3ygjeQBDQj91xlsaqGFQUI5i4ZnZb8yyQuLGpDGivEPIt8EJkd1BVzVoP31FXA==",
      "path": "system.net.primitives/4.3.0",
      "hashPath": "system.net.primitives.4.3.0.nupkg.sha512"
    },
    "System.Net.Requests/4.3.0": {
      "type": "package",
      "serviceable": true,
      "sha512": "sha512-OZNUuAs0kDXUzm7U5NZ1ojVta5YFZmgT2yxBqsQ7Eseq5Ahz88LInGRuNLJ/NP2F8W1q7tse1pKDthj3reF5QA==",
      "path": "system.net.requests/4.3.0",
      "hashPath": "system.net.requests.4.3.0.nupkg.sha512"
    },
    "System.Net.WebHeaderCollection/4.3.0": {
      "type": "package",
      "serviceable": true,
      "sha512": "sha512-XZrXYG3c7QV/GpWeoaRC02rM6LH2JJetfVYskf35wdC/w2fFDFMphec4gmVH2dkll6abtW14u9Rt96pxd9YH2A==",
      "path": "system.net.webheadercollection/4.3.0",
      "hashPath": "system.net.webheadercollection.4.3.0.nupkg.sha512"
    },
    "System.Numerics.Vectors/4.4.0": {
      "type": "package",
      "serviceable": true,
      "sha512": "sha512-UiLzLW+Lw6HLed1Hcg+8jSRttrbuXv7DANVj0DkL9g6EnnzbL75EB7EWsw5uRbhxd/4YdG8li5XizGWepmG3PQ==",
      "path": "system.numerics.vectors/4.4.0",
      "hashPath": "system.numerics.vectors.4.4.0.nupkg.sha512"
    },
    "System.Private.DataContractSerialization/4.3.0": {
      "type": "package",
      "serviceable": true,
      "sha512": "sha512-yDaJ2x3mMmjdZEDB4IbezSnCsnjQ4BxinKhRAaP6kEgL6Bb6jANWphs5SzyD8imqeC/3FxgsuXT6ykkiH1uUmA==",
      "path": "system.private.datacontractserialization/4.3.0",
      "hashPath": "system.private.datacontractserialization.4.3.0.nupkg.sha512"
    },
    "System.Reflection/4.3.0": {
      "type": "package",
      "serviceable": true,
      "sha512": "sha512-KMiAFoW7MfJGa9nDFNcfu+FpEdiHpWgTcS2HdMpDvt9saK3y/G4GwprPyzqjFH9NTaGPQeWNHU+iDlDILj96aQ==",
      "path": "system.reflection/4.3.0",
      "hashPath": "system.reflection.4.3.0.nupkg.sha512"
    },
    "System.Reflection.Emit/4.3.0": {
      "type": "package",
      "serviceable": true,
      "sha512": "sha512-228FG0jLcIwTVJyz8CLFKueVqQK36ANazUManGaJHkO0icjiIypKW7YLWLIWahyIkdh5M7mV2dJepllLyA1SKg==",
      "path": "system.reflection.emit/4.3.0",
      "hashPath": "system.reflection.emit.4.3.0.nupkg.sha512"
    },
    "System.Reflection.Emit.ILGeneration/4.3.0": {
      "type": "package",
      "serviceable": true,
      "sha512": "sha512-59tBslAk9733NXLrUJrwNZEzbMAcu8k344OYo+wfSVygcgZ9lgBdGIzH/nrg3LYhXceynyvTc8t5/GD4Ri0/ng==",
      "path": "system.reflection.emit.ilgeneration/4.3.0",
      "hashPath": "system.reflection.emit.ilgeneration.4.3.0.nupkg.sha512"
    },
    "System.Reflection.Emit.Lightweight/4.3.0": {
      "type": "package",
      "serviceable": true,
      "sha512": "sha512-oadVHGSMsTmZsAF864QYN1t1QzZjIcuKU3l2S9cZOwDdDueNTrqq1yRj7koFfIGEnKpt6NjpL3rOzRhs4ryOgA==",
      "path": "system.reflection.emit.lightweight/4.3.0",
      "hashPath": "system.reflection.emit.lightweight.4.3.0.nupkg.sha512"
    },
    "System.Reflection.Extensions/4.3.0": {
      "type": "package",
      "serviceable": true,
      "sha512": "sha512-rJkrJD3kBI5B712aRu4DpSIiHRtr6QlfZSQsb0hYHrDCZORXCFjQfoipo2LaMUHoT9i1B7j7MnfaEKWDFmFQNQ==",
      "path": "system.reflection.extensions/4.3.0",
      "hashPath": "system.reflection.extensions.4.3.0.nupkg.sha512"
    },
    "System.Reflection.Primitives/4.3.0": {
      "type": "package",
      "serviceable": true,
      "sha512": "sha512-5RXItQz5As4xN2/YUDxdpsEkMhvw3e6aNveFXUn4Hl/udNTCNhnKp8lT9fnc3MhvGKh1baak5CovpuQUXHAlIA==",
      "path": "system.reflection.primitives/4.3.0",
      "hashPath": "system.reflection.primitives.4.3.0.nupkg.sha512"
    },
    "System.Reflection.TypeExtensions/4.7.0": {
      "type": "package",
      "serviceable": true,
      "sha512": "sha512-VybpaOQQhqE6siHppMktjfGBw1GCwvCqiufqmP8F1nj7fTUNtW35LOEt3UZTEsECfo+ELAl/9o9nJx3U91i7vA==",
      "path": "system.reflection.typeextensions/4.7.0",
      "hashPath": "system.reflection.typeextensions.4.7.0.nupkg.sha512"
    },
    "System.Resources.ResourceManager/4.3.0": {
      "type": "package",
      "serviceable": true,
      "sha512": "sha512-/zrcPkkWdZmI4F92gL/TPumP98AVDu/Wxr3CSJGQQ+XN6wbRZcyfSKVoPo17ilb3iOr0cCRqJInGwNMolqhS8A==",
      "path": "system.resources.resourcemanager/4.3.0",
      "hashPath": "system.resources.resourcemanager.4.3.0.nupkg.sha512"
    },
    "System.Runtime/4.3.0": {
      "type": "package",
      "serviceable": true,
      "sha512": "sha512-JufQi0vPQ0xGnAczR13AUFglDyVYt4Kqnz1AZaiKZ5+GICq0/1MH/mO/eAJHt/mHW1zjKBJd7kV26SrxddAhiw==",
      "path": "system.runtime/4.3.0",
      "hashPath": "system.runtime.4.3.0.nupkg.sha512"
    },
    "System.Runtime.CompilerServices.Unsafe/4.7.0": {
      "type": "package",
      "serviceable": true,
      "sha512": "sha512-IpU1lcHz8/09yDr9N+Juc7SCgNUz+RohkCQI+KsWKR67XxpFr8Z6c8t1iENCXZuRuNCc4HBwme/MDHNVCwyAKg==",
      "path": "system.runtime.compilerservices.unsafe/4.7.0",
      "hashPath": "system.runtime.compilerservices.unsafe.4.7.0.nupkg.sha512"
    },
    "System.Runtime.Extensions/4.3.0": {
      "type": "package",
      "serviceable": true,
      "sha512": "sha512-guW0uK0fn5fcJJ1tJVXYd7/1h5F+pea1r7FLSOz/f8vPEqbR2ZAknuRDvTQ8PzAilDveOxNjSfr0CHfIQfFk8g==",
      "path": "system.runtime.extensions/4.3.0",
      "hashPath": "system.runtime.extensions.4.3.0.nupkg.sha512"
    },
    "System.Runtime.Handles/4.3.0": {
      "type": "package",
      "serviceable": true,
      "sha512": "sha512-OKiSUN7DmTWeYb3l51A7EYaeNMnvxwE249YtZz7yooT4gOZhmTjIn48KgSsw2k2lYdLgTKNJw/ZIfSElwDRVgg==",
      "path": "system.runtime.handles/4.3.0",
      "hashPath": "system.runtime.handles.4.3.0.nupkg.sha512"
    },
    "System.Runtime.InteropServices/4.3.0": {
      "type": "package",
      "serviceable": true,
      "sha512": "sha512-uv1ynXqiMK8mp1GM3jDqPCFN66eJ5w5XNomaK2XD+TuCroNTLFGeZ+WCmBMcBDyTFKou3P6cR6J/QsaqDp7fGQ==",
      "path": "system.runtime.interopservices/4.3.0",
      "hashPath": "system.runtime.interopservices.4.3.0.nupkg.sha512"
    },
    "System.Runtime.Loader/4.3.0": {
      "type": "package",
      "serviceable": true,
      "sha512": "sha512-DHMaRn8D8YCK2GG2pw+UzNxn/OHVfaWx7OTLBD/hPegHZZgcZh3H6seWegrC4BYwsfuGrywIuT+MQs+rPqRLTQ==",
      "path": "system.runtime.loader/4.3.0",
      "hashPath": "system.runtime.loader.4.3.0.nupkg.sha512"
    },
    "System.Runtime.Numerics/4.3.0": {
      "type": "package",
      "serviceable": true,
      "sha512": "sha512-yMH+MfdzHjy17l2KESnPiF2dwq7T+xLnSJar7slyimAkUh/gTrS9/UQOtv7xarskJ2/XDSNvfLGOBQPjL7PaHQ==",
      "path": "system.runtime.numerics/4.3.0",
      "hashPath": "system.runtime.numerics.4.3.0.nupkg.sha512"
    },
    "System.Runtime.Serialization.Primitives/4.3.0": {
      "type": "package",
      "serviceable": true,
      "sha512": "sha512-Wz+0KOukJGAlXjtKr+5Xpuxf8+c8739RI1C+A2BoQZT+wMCCoMDDdO8/4IRHfaVINqL78GO8dW8G2lW/e45Mcw==",
      "path": "system.runtime.serialization.primitives/4.3.0",
      "hashPath": "system.runtime.serialization.primitives.4.3.0.nupkg.sha512"
    },
    "System.Runtime.Serialization.Xml/4.3.0": {
      "type": "package",
      "serviceable": true,
      "sha512": "sha512-nUQx/5OVgrqEba3+j7OdiofvVq9koWZAC7Z3xGI8IIViZqApWnZ5+lLcwYgTlbkobrl/Rat+Jb8GeD4WQESD2A==",
      "path": "system.runtime.serialization.xml/4.3.0",
      "hashPath": "system.runtime.serialization.xml.4.3.0.nupkg.sha512"
    },
    "System.Security.Claims/4.3.0": {
      "type": "package",
      "serviceable": true,
      "sha512": "sha512-P/+BR/2lnc4PNDHt/TPBAWHVMLMRHsyYZbU1NphW4HIWzCggz8mJbTQQ3MKljFE7LS3WagmVFuBgoLcFzYXlkA==",
      "path": "system.security.claims/4.3.0",
      "hashPath": "system.security.claims.4.3.0.nupkg.sha512"
    },
    "System.Security.Cryptography.Algorithms/4.3.1": {
      "type": "package",
      "serviceable": true,
      "sha512": "sha512-DVUblnRfnarrI5olEC2B/OCsJQd0anjVaObQMndHSc43efbc88/RMOlDyg/EyY0ix5ecyZMXS8zMksb5ukebZA==",
      "path": "system.security.cryptography.algorithms/4.3.1",
      "hashPath": "system.security.cryptography.algorithms.4.3.1.nupkg.sha512"
    },
    "System.Security.Cryptography.Cng/4.3.0": {
      "type": "package",
      "serviceable": true,
      "sha512": "sha512-03idZOqFlsKRL4W+LuCpJ6dBYDUWReug6lZjBa3uJWnk5sPCUXckocevTaUA8iT/MFSrY/2HXkOt753xQ/cf8g==",
      "path": "system.security.cryptography.cng/4.3.0",
      "hashPath": "system.security.cryptography.cng.4.3.0.nupkg.sha512"
    },
    "System.Security.Cryptography.Csp/4.3.0": {
      "type": "package",
      "serviceable": true,
      "sha512": "sha512-X4s/FCkEUnRGnwR3aSfVIkldBmtURMhmexALNTwpjklzxWU7yjMk7GHLKOZTNkgnWnE0q7+BCf9N2LVRWxewaA==",
      "path": "system.security.cryptography.csp/4.3.0",
      "hashPath": "system.security.cryptography.csp.4.3.0.nupkg.sha512"
    },
    "System.Security.Cryptography.Encoding/4.3.0": {
      "type": "package",
      "serviceable": true,
      "sha512": "sha512-1DEWjZZly9ae9C79vFwqaO5kaOlI5q+3/55ohmq/7dpDyDfc8lYe7YVxJUZ5MF/NtbkRjwFRo14yM4OEo9EmDw==",
      "path": "system.security.cryptography.encoding/4.3.0",
      "hashPath": "system.security.cryptography.encoding.4.3.0.nupkg.sha512"
    },
    "System.Security.Cryptography.OpenSsl/4.3.0": {
      "type": "package",
      "serviceable": true,
      "sha512": "sha512-h4CEgOgv5PKVF/HwaHzJRiVboL2THYCou97zpmhjghx5frc7fIvlkY1jL+lnIQyChrJDMNEXS6r7byGif8Cy4w==",
      "path": "system.security.cryptography.openssl/4.3.0",
      "hashPath": "system.security.cryptography.openssl.4.3.0.nupkg.sha512"
    },
    "System.Security.Cryptography.Pkcs/4.4.0": {
      "type": "package",
      "serviceable": true,
      "sha512": "sha512-pC4ieF0mAVufKNfFYXvtpAkIUBgyAZgLrzDw/bwWDfdqN8H/8m3IqiiMr7cmoWYDFsWwxVTbYDhDzPpiHcxvaA==",
      "path": "system.security.cryptography.pkcs/4.4.0",
      "hashPath": "system.security.cryptography.pkcs.4.4.0.nupkg.sha512"
    },
    "System.Security.Cryptography.Primitives/4.3.0": {
      "type": "package",
      "serviceable": true,
      "sha512": "sha512-7bDIyVFNL/xKeFHjhobUAQqSpJq9YTOpbEs6mR233Et01STBMXNAc/V+BM6dwYGc95gVh/Zf+iVXWzj3mE8DWg==",
      "path": "system.security.cryptography.primitives/4.3.0",
      "hashPath": "system.security.cryptography.primitives.4.3.0.nupkg.sha512"
    },
    "System.Security.Cryptography.X509Certificates/4.3.0": {
      "type": "package",
      "serviceable": true,
      "sha512": "sha512-t2Tmu6Y2NtJ2um0RtcuhP7ZdNNxXEgUm2JeoA/0NvlMjAhKCnM1NX07TDl3244mVp3QU6LPEhT3HTtH1uF7IYw==",
      "path": "system.security.cryptography.x509certificates/4.3.0",
      "hashPath": "system.security.cryptography.x509certificates.4.3.0.nupkg.sha512"
    },
    "System.Security.Principal/4.3.0": {
      "type": "package",
      "serviceable": true,
      "sha512": "sha512-I1tkfQlAoMM2URscUtpcRo/hX0jinXx6a/KUtEQoz3owaYwl3qwsO8cbzYVVnjxrzxjHo3nJC+62uolgeGIS9A==",
      "path": "system.security.principal/4.3.0",
      "hashPath": "system.security.principal.4.3.0.nupkg.sha512"
    },
    "System.Text.Encoding/4.3.0": {
      "type": "package",
      "serviceable": true,
      "sha512": "sha512-BiIg+KWaSDOITze6jGQynxg64naAPtqGHBwDrLaCtixsa5bKiR8dpPOHA7ge3C0JJQizJE+sfkz1wV+BAKAYZw==",
      "path": "system.text.encoding/4.3.0",
      "hashPath": "system.text.encoding.4.3.0.nupkg.sha512"
    },
    "System.Text.Encoding.CodePages/4.7.0": {
      "type": "package",
      "serviceable": true,
      "sha512": "sha512-aeu4FlaUTemuT1qOd1MyU4T516QR4Fy+9yDbwWMPHOHy7U8FD6SgTzdZFO7gHcfAPHtECqInbwklVvUK4RHcNg==",
      "path": "system.text.encoding.codepages/4.7.0",
      "hashPath": "system.text.encoding.codepages.4.7.0.nupkg.sha512"
    },
    "System.Text.Encoding.Extensions/4.3.0": {
      "type": "package",
      "serviceable": true,
      "sha512": "sha512-YVMK0Bt/A43RmwizJoZ22ei2nmrhobgeiYwFzC4YAN+nue8RF6djXDMog0UCn+brerQoYVyaS+ghy9P/MUVcmw==",
      "path": "system.text.encoding.extensions/4.3.0",
      "hashPath": "system.text.encoding.extensions.4.3.0.nupkg.sha512"
    },
    "System.Text.RegularExpressions/4.3.0": {
      "type": "package",
      "serviceable": true,
      "sha512": "sha512-RpT2DA+L660cBt1FssIE9CAGpLFdFPuheB7pLpKpn6ZXNby7jDERe8Ua/Ne2xGiwLVG2JOqziiaVCGDon5sKFA==",
      "path": "system.text.regularexpressions/4.3.0",
      "hashPath": "system.text.regularexpressions.4.3.0.nupkg.sha512"
    },
    "System.Threading/4.3.0": {
      "type": "package",
      "serviceable": true,
      "sha512": "sha512-VkUS0kOBcUf3Wwm0TSbrevDDZ6BlM+b/HRiapRFWjM5O0NS0LviG0glKmFK+hhPDd1XFeSdU1GmlLhb2CoVpIw==",
      "path": "system.threading/4.3.0",
      "hashPath": "system.threading.4.3.0.nupkg.sha512"
    },
    "System.Threading.Tasks/4.3.0": {
      "type": "package",
      "serviceable": true,
      "sha512": "sha512-LbSxKEdOUhVe8BezB/9uOGGppt+nZf6e1VFyw6v3DN6lqitm0OSn2uXMOdtP0M3W4iMcqcivm2J6UgqiwwnXiA==",
      "path": "system.threading.tasks/4.3.0",
      "hashPath": "system.threading.tasks.4.3.0.nupkg.sha512"
    },
    "System.Threading.Tasks.Extensions/4.3.0": {
      "type": "package",
      "serviceable": true,
      "sha512": "sha512-npvJkVKl5rKXrtl1Kkm6OhOUaYGEiF9wFbppFRWSMoApKzt2PiPHT2Bb8a5sAWxprvdOAtvaARS9QYMznEUtug==",
      "path": "system.threading.tasks.extensions/4.3.0",
      "hashPath": "system.threading.tasks.extensions.4.3.0.nupkg.sha512"
    },
    "System.Xml.ReaderWriter/4.3.1": {
      "type": "package",
      "serviceable": true,
      "sha512": "sha512-fVU1Xp9TEOHv1neQDtcJ4hNfYJ1pjfXzKY3VFeiRZK6HTV4Af2Ihyvq1FkPLrL1hzZhXv7NTmowQnL5DgTzIKA==",
      "path": "system.xml.readerwriter/4.3.1",
      "hashPath": "system.xml.readerwriter.4.3.1.nupkg.sha512"
    },
    "System.Xml.XDocument/4.3.0": {
      "type": "package",
      "serviceable": true,
      "sha512": "sha512-5zJ0XDxAIg8iy+t4aMnQAu0MqVbqyvfoUVl1yDV61xdo3Vth45oA2FoY4pPkxYAH5f8ixpmTqXeEIya95x0aCQ==",
      "path": "system.xml.xdocument/4.3.0",
      "hashPath": "system.xml.xdocument.4.3.0.nupkg.sha512"
    },
    "System.Xml.XmlDocument/4.3.0": {
      "type": "package",
      "serviceable": true,
      "sha512": "sha512-lJ8AxvkX7GQxpC6GFCeBj8ThYVyQczx2+f/cWHJU8tjS7YfI6Cv6bon70jVEgs2CiFbmmM8b9j1oZVx0dSI2Ww==",
      "path": "system.xml.xmldocument/4.3.0",
      "hashPath": "system.xml.xmldocument.4.3.0.nupkg.sha512"
    },
    "System.Xml.XmlSerializer/4.3.0": {
      "type": "package",
      "serviceable": true,
      "sha512": "sha512-MYoTCP7EZ98RrANESW05J5ZwskKDoN0AuZ06ZflnowE50LTpbR5yRg3tHckTVm5j/m47stuGgCrCHWePyHS70Q==",
      "path": "system.xml.xmlserializer/4.3.0",
      "hashPath": "system.xml.xmlserializer.4.3.0.nupkg.sha512"
    },
    "System.Xml.XPath/4.3.0": {
      "type": "package",
      "serviceable": true,
      "sha512": "sha512-v1JQ5SETnQusqmS3RwStF7vwQ3L02imIzl++sewmt23VGygix04pEH+FCj1yWb+z4GDzKiljr1W7Wfvrx0YwgA==",
      "path": "system.xml.xpath/4.3.0",
      "hashPath": "system.xml.xpath.4.3.0.nupkg.sha512"
    },
    "System.Xml.XPath.XmlDocument/4.3.0": {
      "type": "package",
      "serviceable": true,
      "sha512": "sha512-A/uxsWi/Ifzkmd4ArTLISMbfFs6XpRPsXZonrIqyTY70xi8t+mDtvSM5Os0RqyRDobjMBwIDHDL4NOIbkDwf7A==",
      "path": "system.xml.xpath.xmldocument/4.3.0",
      "hashPath": "system.xml.xpath.xmldocument.4.3.0.nupkg.sha512"
    },
    "Axiobat.Application/1.0.0": {
      "type": "project",
      "serviceable": false,
      "sha512": ""
    },
    "Axiobat.Domain/1.0.0": {
      "type": "project",
      "serviceable": false,
      "sha512": ""
    }
  }
}