[
  {
    "value": "Avoir",
    "isDefault": true,
    "type": 1,
    "id": 1,
    "createdOn": "2020-02-18T12:41:58+00:00",
    "lastModifiedOn": "2020-02-18T12:41:59+00:00",
    "searchTerms": "avoir"
  }
]